solid icosahedron_9_3_fixed
	facet normal 0.71807223303905332 0.6805221010912742 0.14581473884564985 
		outer loop
			vertex 0.72687713730000003 0. 0. 
			vertex 0.039002977600000002 0.72582996659999999 0. 
			vertex 0.2912827805 0.27605073790000001 0.85676924919999997 
		endloop
	endfacet
	facet normal -0.71807223303905332 -0.6805221010912742 0.14581473884564985 
		outer loop
			vertex 0.72687713730000003 0. 0. 
			vertex 0.039002977600000002 0.72582996659999999 0. 
			vertex 0.2912827805 0.27605073790000001 -0.85676924919999997 
		endloop
	endfacet
	facet normal 0.6293550890450581 -0.58710352205002514 0.50913812103351941 
		outer loop
			vertex 0.72687713730000003 0. 0. 
			vertex 0.2912827805 0.27605073790000001 0.85676924919999997 
			vertex -0.048259521200000002 -0.52101111209999995 0.3573661729 
		endloop
	endfacet
	facet normal -0.55248760313221046 0.65995137860689668 -0.50913812100458744 
		outer loop
			vertex 0.039002977600000002 0.72582996659999999 0. 
			vertex 0.2912827805 0.27605073790000001 -0.85676924919999997 
			vertex -0.52285004390000001 -0.020233435800000001 -0.3573661729 
		endloop
	endfacet
	facet normal 0.73192277539431039 0.10957667476472817 -0.67251914709292471 
		outer loop
			vertex 0.2912827805 0.27605073790000001 0.85676924919999997 
			vertex -0.048259521200000002 -0.52101111209999995 0.3573661729 
			vertex -0.39010351589999998 0.39182907760000002 0.13406039280000001 
		endloop
	endfacet
	facet normal 0.14869253177209435 0.72498863975962069 0.67251914709895055 
		outer loop
			vertex 0.2912827805 0.27605073790000001 -0.85676924919999997 
			vertex -0.52285004390000001 -0.020233435800000001 -0.3573661729 
			vertex 0.37033230760000002 -0.4105663906 -0.13406039280000001 
		endloop
	endfacet
	facet normal -0.4066608295390971 -0.90949524427775541 -0.086286559525335885 
		outer loop
			vertex 0.72687713730000003 0. 0. 
			vertex 0.23401204253751229 0.21976304551736847 0.0064376598625807586 
			vertex 0.23200312928484715 0.22188280742242841 -0.0064376598623419254 
		endloop
	endfacet
	facet normal -0.40666082953909688 -0.90949524427775508 -0.0862865595253412 
		outer loop
			vertex 0.72687713730000003 0. 0. 
			vertex 0.23200312928484715 0.22188280742242841 -0.0064376598623419254 
			vertex 0.2912827805 0.27605073790000001 -0.85676924919999997 
		endloop
	endfacet
	facet normal -0.4066608295390971 -0.90949524427775541 -0.086286559525336481 
		outer loop
			vertex 0.23401204253751229 0.21976304551736847 0.0064376598625807586 
			vertex -0.18637916609999999 0.40721079399999999 0.011928687 
			vertex 0.23200312928484715 0.22188280742242841 -0.0064376598623419254 
		endloop
	endfacet
	facet normal -0.93000570706835084 -0.35727302510567982 0.086286559510349817 
		outer loop
			vertex 0.039002977600000002 0.72582996659999999 0. 
			vertex 0.23200312928484715 0.22188280742242841 -0.0064376598623419254 
			vertex 0.23401204253751229 0.21976304551736847 0.0064376598625807586 
		endloop
	endfacet
	facet normal -0.93000570706835106 -0.35727302510567999 0.08628655951034607 
		outer loop
			vertex 0.039002977600000002 0.72582996659999999 0. 
			vertex 0.23401204253751229 0.21976304551736847 0.0064376598625807586 
			vertex 0.2912827805 0.27605073790000001 0.85676924919999997 
		endloop
	endfacet
	facet normal -0.93000570706835106 -0.35727302510568004 0.086286559510346555 
		outer loop
			vertex 0.23200312928484715 0.22188280742242841 -0.0064376598623419254 
			vertex 0.3966233629 -0.20796089139999999 -0.011928687 
			vertex 0.23401204253751229 0.21976304551736847 0.0064376598625807586 
		endloop
	endfacet
	facet normal 0.79819069236584528 0.47790824428882289 0.36673604767094753 
		outer loop
			vertex 0.2912827805 0.27605073790000001 -0.85676924919999997 
			vertex -0.11371960116542479 0.38725937714367453 -0.12021333216886665 
			vertex 0.019303132092184483 0.15366010387806936 -0.10532112010270417 
		endloop
	endfacet
	facet normal 0.79819069236584528 0.47790824428882267 0.36673604767094747 
		outer loop
			vertex 0.2912827805 0.27605073790000001 -0.85676924919999997 
			vertex 0.019303132092184483 0.15366010387806936 -0.10532112010270417 
			vertex 0.37033230760000002 -0.4105663906 -0.13406039280000001 
		endloop
	endfacet
	facet normal 0.79819069236584517 0.47790824428882278 0.36673604767094758 
		outer loop
			vertex -0.11371960116542479 0.38725937714367453 -0.12021333216886665 
			vertex -0.18637916609999999 0.40721079399999999 0.011928687 
			vertex 0.019303132092184483 0.15366010387806936 -0.10532112010270417 
		endloop
	endfacet
	facet normal -0.40666082953909705 -0.90949524427775486 -0.0862865595253412 
		outer loop
			vertex -0.11371960116542479 0.38725937714367453 -0.12021333216886665 
			vertex 0.2912827805 0.27605073790000001 -0.85676924919999997 
			vertex 0.23200312928484715 0.22188280742242841 -0.0064376598623419254 
		endloop
	endfacet
	facet normal 0.4066608295390971 0.90949524427775497 0.086286559525341339 
		outer loop
			vertex -0.11371960116542479 0.38725937714367453 -0.12021333216886665 
			vertex -0.18637916609999999 0.40721079399999999 0.011928687 
			vertex 0.23200312928484715 0.22188280742242841 -0.0064376598623419254 
		endloop
	endfacet
	facet normal 0.37505332638595512 0.15531137620224003 -0.9139000923454359 
		outer loop
			vertex 0.23200312928484715 0.22188280742242841 -0.0064376598623419254 
			vertex 0.019303132092184483 0.15366010387806936 -0.10532112010270417 
			vertex -0.11371960116542479 0.38725937714367453 -0.12021333216886665 
		endloop
	endfacet
	facet normal 0.37505332638595573 0.15531137620224156 -0.91390009234543557 
		outer loop
			vertex 0.23200312928484715 0.22188280742242841 -0.0064376598623419254 
			vertex -0.11371960116542479 0.38725937714367453 -0.12021333216886665 
			vertex 0.039002977600000002 0.72582996659999999 0. 
		endloop
	endfacet
	facet normal 0.37505332638595545 0.15531137620224023 -0.91390009234543579 
		outer loop
			vertex 0.019303132092184483 0.15366010387806936 -0.10532112010270417 
			vertex -0.52285004390000001 -0.020233435800000001 -0.3573661729 
			vertex -0.11371960116542479 0.38725937714367453 -0.12021333216886665 
		endloop
	endfacet
	facet normal -0.3750533263859529 -0.15531137620224289 0.91390009234543645 
		outer loop
			vertex -0.52285004390000001 -0.020233435800000001 -0.3573661729 
			vertex -0.11371960116542479 0.38725937714367453 -0.12021333216886665 
			vertex 0.039002977600000002 0.72582996659999999 0. 
		endloop
	endfacet
	facet normal 0.37505332638595479 0.15531137620224122 -0.91390009234543601 
		outer loop
			vertex 0.019303132092184483 0.15366010387806936 -0.10532112010270417 
			vertex 0.23200312928484715 0.22188280742242841 -0.0064376598623419254 
			vertex 0.3966233629 -0.20796089139999999 -0.011928687 
		endloop
	endfacet
	facet normal -0.84482718960301373 0.071612609778638411 0.53022509732015322 
		outer loop
			vertex -0.18637916609999999 0.40721079399999999 0.011928687 
			vertex -0.41355959566083522 -0.061002982454901156 -0.28680895135965045 
			vertex -0.083105995906440189 -0.40969048866304913 0.28680895135503331 
		endloop
	endfacet
	facet normal 0.026177466863860875 -0.84745270449360877 -0.53022509736437395 
		outer loop
			vertex 0.3966233629 -0.20796089139999999 -0.011928687 
			vertex -0.083105995906440189 -0.40969048866304913 0.28680895135503331 
			vertex -0.41355959566083522 -0.061002982454901156 -0.28680895135965045 
		endloop
	endfacet
	facet normal 0.85071442492470239 0.19963039671323224 -0.4862434286786308 
		outer loop
			vertex -0.56497153850000004 -0.37305960500000002 -0.48591257269999999 
			vertex -0.49956178648070004 -0.086951382882807293 -0.25401037966848206 
			vertex -0.11363174366177731 -0.49417643443293946 0.25401037963849571 
		endloop
	endfacet
	facet normal 0.85071442492470206 0.19963039671323921 -0.48624342867862796 
		outer loop
			vertex -0.56497153850000004 -0.37305960500000002 -0.48591257269999999 
			vertex -0.11363174366177731 -0.49417643443293946 0.25401037963849571 
			vertex -0.048259521200000002 -0.52101111209999995 0.3573661729 
		endloop
	endfacet
	facet normal -0.98080633224270819 0.080162150228303197 0.17774410905394689 
		outer loop
			vertex -0.49956178648070004 -0.086951382882807293 -0.25401037966848206 
			vertex -0.56497153850000004 -0.37305960500000002 -0.48591257269999999 
			vertex -0.40283756079999999 -0.54413987900000005 0.48591257269999999 
		endloop
	endfacet
	facet normal -0.24499067410944567 -0.83877702496035511 -0.48624342874537158 
		outer loop
			vertex -0.11363174366177731 -0.49417643443293946 0.25401037963849571 
			vertex -0.40283756079999999 -0.54413987900000005 0.48591257269999999 
			vertex -0.49956178648070004 -0.086951382882807293 -0.25401037966848206 
		endloop
	endfacet
	facet normal 0.24499067410944328 0.83877702496035544 0.48624342874537213 
		outer loop
			vertex -0.40283756079999999 -0.54413987900000005 0.48591257269999999 
			vertex -0.49956178648070004 -0.086951382882807293 -0.25401037966848206 
			vertex -0.52285004390000001 -0.020233435800000001 -0.3573661729 
		endloop
	endfacet
	facet normal 0.027418283424204611 -0.98369470334597453 -0.17774410916580338 
		outer loop
			vertex -0.11363174366177731 -0.49417643443293946 0.25401037963849571 
			vertex -0.40283756079999999 -0.54413987900000005 0.48591257269999999 
			vertex -0.56497153850000004 -0.37305960500000002 -0.48591257269999999 
		endloop
	endfacet
	facet normal 0.52004928939327677 0.77139704947996068 -0.36673604766256446 
		outer loop
			vertex 0.2912827805 0.27605073790000001 0.85676924919999997 
			vertex 0.38059947625407664 -0.13433544424078747 0.12021333217319519 
			vertex 0.15447450736727564 0.01103018615827378 0.10532112009631611 
		endloop
	endfacet
	facet normal 0.52004928939327655 0.77139704947996079 -0.36673604766256451 
		outer loop
			vertex 0.2912827805 0.27605073790000001 0.85676924919999997 
			vertex 0.15447450736727564 0.01103018615827378 0.10532112009631611 
			vertex -0.39010351589999998 0.39182907760000002 0.13406039280000001 
		endloop
	endfacet
	facet normal 0.52004928939327666 0.77139704947996068 -0.36673604766256457 
		outer loop
			vertex 0.38059947625407664 -0.13433544424078747 0.12021333217319519 
			vertex 0.3966233629 -0.20796089139999999 -0.011928687 
			vertex 0.15447450736727564 0.01103018615827378 0.10532112009631611 
		endloop
	endfacet
	facet normal -0.93000570706835106 -0.35727302510568004 0.086286559510346056 
		outer loop
			vertex 0.38059947625407664 -0.13433544424078747 0.12021333217319519 
			vertex 0.2912827805 0.27605073790000001 0.85676924919999997 
			vertex 0.23401204253751229 0.21976304551736847 0.0064376598625807586 
		endloop
	endfacet
	facet normal 0.93000570706835117 0.35727302510567999 -0.086286559510346014 
		outer loop
			vertex 0.38059947625407664 -0.13433544424078747 0.12021333217319519 
			vertex 0.3966233629 -0.20796089139999999 -0.011928687 
			vertex 0.23401204253751229 0.21976304551736847 0.0064376598625807586 
		endloop
	endfacet
	facet normal 0.17521234463031993 0.36617926688915164 0.91390009234580416 
		outer loop
			vertex 0.23401204253751229 0.21976304551736847 0.0064376598625807586 
			vertex 0.15447450736727564 0.01103018615827378 0.10532112009631611 
			vertex 0.38059947625407664 -0.13433544424078747 0.12021333217319519 
		endloop
	endfacet
	facet normal 0.17521234463032084 0.36617926688915198 0.91390009234580383 
		outer loop
			vertex 0.23401204253751229 0.21976304551736847 0.0064376598625807586 
			vertex 0.38059947625407664 -0.13433544424078747 0.12021333217319519 
			vertex 0.72687713730000003 0. 0. 
		endloop
	endfacet
	facet normal 0.17521234463031995 0.3661792668891517 0.91390009234580427 
		outer loop
			vertex 0.15447450736727564 0.01103018615827378 0.10532112009631611 
			vertex -0.048259521200000002 -0.52101111209999995 0.3573661729 
			vertex 0.38059947625407664 -0.13433544424078747 0.12021333217319519 
		endloop
	endfacet
	facet normal -0.17521234463032218 -0.36617926688914942 -0.9139000923458046 
		outer loop
			vertex -0.048259521200000002 -0.52101111209999995 0.3573661729 
			vertex 0.38059947625407664 -0.13433544424078747 0.12021333217319519 
			vertex 0.72687713730000003 0. 0. 
		endloop
	endfacet
	facet normal 0.17521234463032065 0.36617926688915148 0.91390009234580427 
		outer loop
			vertex 0.15447450736727564 0.01103018615827378 0.10532112009631611 
			vertex 0.23401204253751229 0.21976304551736847 0.0064376598625807586 
			vertex -0.18637916609999999 0.40721079399999999 0.011928687 
		endloop
	endfacet
	facet normal -0.79819069236584461 -0.47790824428882217 -0.36673604767094931 
		outer loop
			vertex 0.019303132092184483 0.15366010387806936 -0.10532112010270417 
			vertex 0.37033230760000002 -0.4105663906 -0.13406039280000001 
			vertex 0.18850395439090181 -0.14347098159120475 -0.086378684732940969 
		endloop
	endfacet
	facet normal 0.79819069236584517 0.4779082442888225 0.3667360476709482 
		outer loop
			vertex 0.019303132092184483 0.15366010387806936 -0.10532112010270417 
			vertex -0.18637916609999999 0.40721079399999999 0.011928687 
			vertex 0.18850395439090181 -0.14347098159120475 -0.086378684732940969 
		endloop
	endfacet
	facet normal -0.33857236164331778 -0.38385051060123404 0.85908529346185325 
		outer loop
			vertex 0.18850395439090181 -0.14347098159120475 -0.086378684732940969 
			vertex -0.18637916609999999 0.40721079399999999 0.011928687 
			vertex -0.41355959566083522 -0.061002982454901156 -0.28680895135965045 
		endloop
	endfacet
	facet normal 0.37505332638595495 0.15531137620224136 -0.91390009234543579 
		outer loop
			vertex 0.019303132092184483 0.15366010387806936 -0.10532112010270417 
			vertex 0.18850395439090181 -0.14347098159120475 -0.086378684732940969 
			vertex -0.52285004390000001 -0.020233435800000001 -0.3573661729 
		endloop
	endfacet
	facet normal -0.37505332638595468 -0.15531137620224117 0.9139000923454359 
		outer loop
			vertex 0.019303132092184483 0.15366010387806936 -0.10532112010270417 
			vertex 0.18850395439090181 -0.14347098159120475 -0.086378684732940969 
			vertex 0.3966233629 -0.20796089139999999 -0.011928687 
		endloop
	endfacet
	facet normal -0.84482718960301517 0.071612609778637551 0.53022509732015122 
		outer loop
			vertex -0.083105995906440189 -0.40969048866304913 0.28680895135503331 
			vertex -0.048259521200000002 -0.52101111209999995 0.3573661729 
			vertex -0.14255000758179992 0.11266047791731848 0.12154549305681606 
		endloop
	endfacet
	facet normal 0.84482718960301517 -0.07161260977863726 -0.53022509732015088 
		outer loop
			vertex -0.083105995906440189 -0.40969048866304913 0.28680895135503331 
			vertex -0.18637916609999999 0.40721079399999999 0.011928687 
			vertex -0.14255000758179992 0.11266047791731848 0.12154549305681606 
		endloop
	endfacet
	facet normal 0.17521234463032059 0.36617926688915148 0.91390009234580416 
		outer loop
			vertex -0.14255000758179992 0.11266047791731848 0.12154549305681606 
			vertex -0.048259521200000002 -0.52101111209999995 0.3573661729 
			vertex 0.15447450736727564 0.01103018615827378 0.10532112009631611 
		endloop
	endfacet
	facet normal -0.4014647297971824 -0.31748784107208089 -0.85908529349550877 
		outer loop
			vertex -0.083105995906440189 -0.40969048866304913 0.28680895135503331 
			vertex -0.14255000758179992 0.11266047791731848 0.12154549305681606 
			vertex 0.3966233629 -0.20796089139999999 -0.011928687 
		endloop
	endfacet
	facet normal 0.40146472979718217 0.31748784107208089 0.85908529349550888 
		outer loop
			vertex -0.083105995906440189 -0.40969048866304913 0.28680895135503331 
			vertex -0.14255000758179992 0.11266047791731848 0.12154549305681606 
			vertex -0.39010351589999998 0.39182907760000002 0.13406039280000001 
		endloop
	endfacet
	facet normal -0.84482718960301373 0.071612609778638564 0.53022509732015322 
		outer loop
			vertex -0.56497153850000004 -0.37305960500000002 -0.48591257269999999 
			vertex -0.18122717929038706 -0.40223142521959865 0.1294614266525268 
			vertex -0.38909796572170197 -0.12804575339370472 -0.23877848656833767 
		endloop
	endfacet
	facet normal -0.84482718960301384 0.071612609778638328 0.53022509732015299 
		outer loop
			vertex -0.18122717929038706 -0.40223142521959865 0.1294614266525268 
			vertex -0.083105995906440189 -0.40969048866304913 0.28680895135503331 
			vertex -0.38909796572170197 -0.12804575339370472 -0.23877848656833767 
		endloop
	endfacet
	facet normal 0.84482718960301417 -0.071612609778637093 -0.53022509732015244 
		outer loop
			vertex -0.083105995906440189 -0.40969048866304913 0.28680895135503331 
			vertex -0.38909796572170197 -0.12804575339370472 -0.23877848656833767 
			vertex -0.41355959566083522 -0.061002982454901156 -0.28680895135965045 
		endloop
	endfacet
	facet normal 0.84482718960301373 -0.071612609778639119 -0.53022509732015299 
		outer loop
			vertex -0.18122717929038706 -0.40223142521959865 0.1294614266525268 
			vertex -0.083105995906440189 -0.40969048866304913 0.28680895135503331 
			vertex -0.048259521200000002 -0.52101111209999995 0.3573661729 
		endloop
	endfacet
	facet normal 0.24499067410944578 0.83877702496035533 0.48624342874537135 
		outer loop
			vertex 0.37033230760000002 -0.4105663906 -0.13406039280000001 
			vertex -0.38909796572170197 -0.12804575339370472 -0.23877848656833767 
			vertex -0.18122717929038706 -0.40223142521959865 0.1294614266525268 
		endloop
	endfacet
	facet normal 0.24499067410944575 0.83877702496035522 0.48624342874537135 
		outer loop
			vertex -0.38909796572170197 -0.12804575339370472 -0.23877848656833767 
			vertex -0.49956178648070004 -0.086951382882807293 -0.25401037966848206 
			vertex -0.18122717929038706 -0.40223142521959865 0.1294614266525268 
		endloop
	endfacet
	facet normal -0.24499067410944161 -0.83877702496035533 -0.48624342874537335 
		outer loop
			vertex -0.49956178648070004 -0.086951382882807293 -0.25401037966848206 
			vertex -0.18122717929038706 -0.40223142521959865 0.1294614266525268 
			vertex -0.11363174366177731 -0.49417643443293946 0.25401037963849571 
		endloop
	endfacet
	facet normal -0.24499067410944578 -0.83877702496035511 -0.48624342874537102 
		outer loop
			vertex -0.38909796572170197 -0.12804575339370472 -0.23877848656833767 
			vertex -0.49956178648070004 -0.086951382882807293 -0.25401037966848206 
			vertex -0.52285004390000001 -0.020233435800000001 -0.3573661729 
		endloop
	endfacet
	facet normal 0.33857236164331772 0.38385051060123415 -0.85908529346185314 
		outer loop
			vertex 0.37033230760000002 -0.4105663906 -0.13406039280000001 
			vertex -0.56497153850000004 -0.37305960500000002 -0.48591257269999999 
			vertex -0.42384877475969573 -0.0822087500987565 -0.30033901233627153 
		endloop
	endfacet
	facet normal -0.33857236164331772 -0.38385051060123376 0.85908529346185336 
		outer loop
			vertex 0.37033230760000002 -0.4105663906 -0.13406039280000001 
			vertex -0.41355959566083522 -0.061002982454901156 -0.28680895135965045 
			vertex -0.42384877475969573 -0.0822087500987565 -0.30033901233627153 
		endloop
	endfacet
	facet normal 0.84482718960301362 -0.071612609778637815 -0.53022509732015344 
		outer loop
			vertex -0.42384877475969573 -0.0822087500987565 -0.30033901233627153 
			vertex -0.41355959566083522 -0.061002982454901156 -0.28680895135965045 
			vertex -0.38909796572170197 -0.12804575339370472 -0.23877848656833767 
		endloop
	endfacet
	facet normal -0.84482718960301362 0.071612609778638064 0.53022509732015366 
		outer loop
			vertex -0.42384877475969573 -0.0822087500987565 -0.30033901233627153 
			vertex -0.56497153850000004 -0.37305960500000002 -0.48591257269999999 
			vertex -0.38909796572170197 -0.12804575339370472 -0.23877848656833767 
		endloop
	endfacet
	facet normal 0.24499067410944567 0.83877702496035511 0.48624342874537163 
		outer loop
			vertex 0.37033230760000102 -0.41056639060000039 -0.13406039279999987 
			vertex -0.42384877475969573 -0.0822087500987565 -0.30033901233627153 
			vertex -0.38909796572170197 -0.12804575339370472 -0.23877848656833767 
		endloop
	endfacet
	facet normal -0.244990674109446 -0.83877702496035567 -0.48624342874537019 
		outer loop
			vertex 0.37033230760000102 -0.41056639060000039 -0.13406039279999987 
			vertex -0.42384877475969573 -0.0822087500987565 -0.30033901233627153 
			vertex -0.52285004390000001 -0.020233435800000001 -0.3573661729 
		endloop
	endfacet
	facet normal -0.24499067410944511 -0.83877702496035511 -0.48624342874537185 
		outer loop
			vertex -0.42384877475969573 -0.0822087500987565 -0.30033901233627153 
			vertex -0.38909796572170197 -0.12804575339370472 -0.23877848656833767 
			vertex -0.52285004390000001 -0.020233435800000001 -0.3573661729 
		endloop
	endfacet
	facet normal 0.02617746686386118 -0.8474527044936081 -0.53022509736437462 
		outer loop
			vertex -0.41355959566083522 -0.061002982454901156 -0.28680895135965045 
			vertex -0.52285004390000001 -0.020233435800000001 -0.3573661729 
			vertex 0.10484918623035 -0.14838981148524125 -0.12154549298254616 
		endloop
	endfacet
	facet normal -0.026177466863860858 0.84745270449360965 0.53022509736437229 
		outer loop
			vertex -0.41355959566083522 -0.061002982454901156 -0.28680895135965045 
			vertex 0.3966233629 -0.20796089139999999 -0.011928687 
			vertex 0.10484918623035 -0.14838981148524125 -0.12154549298254616 
		endloop
	endfacet
	facet normal -0.37505332638595529 -0.15531137620224361 0.91390009234543534 
		outer loop
			vertex 0.10484918623035 -0.14838981148524125 -0.12154549298254616 
			vertex 0.3966233629 -0.20796089139999999 -0.011928687 
			vertex 0.18850395439090181 -0.14347098159120475 -0.086378684732940969 
		endloop
	endfacet
	facet normal 0.37505332638595523 0.15531137620224375 -0.91390009234543534 
		outer loop
			vertex 0.10484918623035 -0.14838981148524125 -0.12154549298254616 
			vertex -0.52285004390000001 -0.020233435800000001 -0.3573661729 
			vertex 0.18850395439090181 -0.14347098159120475 -0.086378684732940969 
		endloop
	endfacet
	facet normal -0.33857236164331744 -0.38385051060123537 0.85908529346185258 
		outer loop
			vertex -0.41355959566083578 -0.061002982454900934 -0.28680895135965057 
			vertex 0.10484918623035 -0.14838981148524125 -0.12154549298254616 
			vertex 0.18850395439090181 -0.14347098159120475 -0.086378684732940969 
		endloop
	endfacet
	facet normal 0.33857236164331772 0.38385051060123421 -0.85908529346185325 
		outer loop
			vertex -0.41355959566083578 -0.061002982454900934 -0.28680895135965057 
			vertex 0.10484918623035 -0.14838981148524125 -0.12154549298254616 
			vertex 0.37033230760000002 -0.4105663906 -0.13406039280000001 
		endloop
	endfacet
	facet normal 0.33857236164331794 0.38385051060123426 -0.85908529346185314 
		outer loop
			vertex 0.10484918623035 -0.14838981148524125 -0.12154549298254616 
			vertex 0.18850395439090181 -0.14347098159120475 -0.086378684732940969 
			vertex 0.37033230760000002 -0.4105663906 -0.13406039280000001 
		endloop
	endfacet
	facet normal 0.02617746686386151 -0.84745270449360866 -0.53022509736437384 
		outer loop
			vertex -0.40283756079999999 -0.54413987900000005 0.48591257269999999 
			vertex -0.41137629211312232 -0.15938304873420017 -0.12946142668072513 
			vertex -0.14873961311585585 -0.38166669935139891 0.23877848654195288 
		endloop
	endfacet
	facet normal 0.026177466863861659 -0.84745270449360854 -0.53022509736437395 
		outer loop
			vertex -0.41137629211312232 -0.15938304873420017 -0.12946142668072513 
			vertex -0.41355959566083522 -0.061002982454901156 -0.28680895135965045 
			vertex -0.14873961311585585 -0.38166669935139891 0.23877848654195288 
		endloop
	endfacet
	facet normal -0.026177466863856708 0.84745270449360977 0.53022509736437251 
		outer loop
			vertex -0.41355959566083522 -0.061002982454901156 -0.28680895135965045 
			vertex -0.14873961311585585 -0.38166669935139891 0.23877848654195288 
			vertex -0.083105995906440189 -0.40969048866304913 0.28680895135503331 
		endloop
	endfacet
	facet normal -0.026177466863860726 0.84745270449360866 0.53022509736437407 
		outer loop
			vertex -0.41137629211312232 -0.15938304873420017 -0.12946142668072513 
			vertex -0.41355959566083522 -0.061002982454901156 -0.28680895135965045 
			vertex -0.52285004390000001 -0.020233435800000001 -0.3573661729 
		endloop
	endfacet
	facet normal 0.85071442492470251 0.19963039671323221 -0.48624342867863052 
		outer loop
			vertex -0.39010351589999998 0.39182907760000002 0.13406039280000001 
			vertex -0.14873961311585585 -0.38166669935139891 0.23877848654195288 
			vertex -0.41137629211312232 -0.15938304873420017 -0.12946142668072513 
		endloop
	endfacet
	facet normal 0.85071442492470239 0.19963039671323229 -0.48624342867863057 
		outer loop
			vertex -0.14873961311585585 -0.38166669935139891 0.23877848654195288 
			vertex -0.11363174366177731 -0.49417643443293946 0.25401037963849571 
			vertex -0.41137629211312232 -0.15938304873420017 -0.12946142668072513 
		endloop
	endfacet
	facet normal -0.85071442492470095 -0.19963039671322866 0.48624342867863424 
		outer loop
			vertex -0.11363174366177731 -0.49417643443293946 0.25401037963849571 
			vertex -0.41137629211312232 -0.15938304873420017 -0.12946142668072513 
			vertex -0.49956178648070004 -0.086951382882807293 -0.25401037966848206 
		endloop
	endfacet
	facet normal -0.85071442492470206 -0.1996303967132321 0.48624342867863074 
		outer loop
			vertex -0.14873961311585585 -0.38166669935139891 0.23877848654195288 
			vertex -0.11363174366177731 -0.49417643443293946 0.25401037963849571 
			vertex -0.048259521200000002 -0.52101111209999995 0.3573661729 
		endloop
	endfacet
	facet normal 0.40146472979718234 0.31748784107208095 0.85908529349550877 
		outer loop
			vertex -0.39010351589999998 0.39182907760000002 0.13406039280000001 
			vertex -0.40283756079999999 -0.54413987900000005 0.48591257269999999 
			vertex -0.10483331325947817 -0.41882697968402766 0.30033901232521415 
		endloop
	endfacet
	facet normal -0.40146472979718278 -0.31748784107208078 -0.85908529349550866 
		outer loop
			vertex -0.39010351589999998 0.39182907760000002 0.13406039280000001 
			vertex -0.083105995906440189 -0.40969048866304913 0.28680895135503331 
			vertex -0.10483331325947817 -0.41882697968402766 0.30033901232521415 
		endloop
	endfacet
	facet normal -0.026177466863860389 0.84745270449360743 0.53022509736437595 
		outer loop
			vertex -0.10483331325947817 -0.41882697968402766 0.30033901232521415 
			vertex -0.083105995906440189 -0.40969048866304913 0.28680895135503331 
			vertex -0.14873961311585585 -0.38166669935139891 0.23877848654195288 
		endloop
	endfacet
	facet normal 0.026177466863859303 -0.84745270449360777 -0.53022509736437551 
		outer loop
			vertex -0.10483331325947817 -0.41882697968402766 0.30033901232521415 
			vertex -0.40283756079999999 -0.54413987900000005 0.48591257269999999 
			vertex -0.14873961311585585 -0.38166669935139891 0.23877848654195288 
		endloop
	endfacet
	facet normal 0.85071442492470206 0.19963039671323207 -0.48624342867863135 
		outer loop
			vertex -0.39010351589999992 0.3918290775999998 0.13406039280000004 
			vertex -0.10483331325947817 -0.41882697968402766 0.30033901232521415 
			vertex -0.14873961311585585 -0.38166669935139891 0.23877848654195288 
		endloop
	endfacet
	facet normal -0.85071442492470206 -0.1996303967132321 0.48624342867863096 
		outer loop
			vertex -0.39010351589999992 0.3918290775999998 0.13406039280000004 
			vertex -0.10483331325947817 -0.41882697968402766 0.30033901232521415 
			vertex -0.048259521200000002 -0.52101111209999995 0.3573661729 
		endloop
	endfacet
	facet normal -0.85071442492470173 -0.19963039671323055 0.48624342867863241 
		outer loop
			vertex -0.10483331325947817 -0.41882697968402766 0.30033901232521415 
			vertex -0.14873961311585585 -0.38166669935139891 0.23877848654195288 
			vertex -0.048259521200000002 -0.52101111209999995 0.3573661729 
		endloop
	endfacet
	facet normal -0.98080633224270819 0.08016215022830335 0.17774410905394697 
		outer loop
			vertex -0.40283756079999999 -0.54413987900000005 0.48591257269999999 
			vertex -0.39010351589999998 0.39182907760000002 0.13406039280000001 
			vertex -0.49913950531613316 -0.085104286547811825 -0.25251323398124459 
		endloop
	endfacet
	facet normal 0.98080633224270919 -0.080162150228294621 -0.17774410905394528 
		outer loop
			vertex -0.40283756079999999 -0.54413987900000005 0.48591257269999999 
			vertex -0.49956178648070004 -0.086951382882807293 -0.25401037966848206 
			vertex -0.49913950531613316 -0.085104286547811825 -0.25251323398124459 
		endloop
	endfacet
	facet normal -0.85071442492470251 -0.19963039671323912 0.48624342867862763 
		outer loop
			vertex -0.49913950531613316 -0.085104286547811825 -0.25251323398124459 
			vertex -0.49956178648070004 -0.086951382882807293 -0.25401037966848206 
			vertex -0.41137629211312232 -0.15938304873420017 -0.12946142668072513 
		endloop
	endfacet
	facet normal 0.85071442492470195 0.19963039671323263 -0.4862434286786313 
		outer loop
			vertex -0.49913950531613316 -0.085104286547811825 -0.25251323398124459 
			vertex -0.39010351589999998 0.39182907760000002 0.13406039280000001 
			vertex -0.41137629211312232 -0.15938304873420017 -0.12946142668072513 
		endloop
	endfacet
	facet normal 0.026177466863860143 -0.84745270449360866 -0.53022509736437384 
		outer loop
			vertex -0.40283756079999999 -0.54413987900000038 0.48591257270000054 
			vertex -0.49913950531613316 -0.085104286547811825 -0.25251323398124459 
			vertex -0.41137629211312232 -0.15938304873420017 -0.12946142668072513 
		endloop
	endfacet
	facet normal -0.026177466863868244 0.84745270449360799 0.5302250973643744 
		outer loop
			vertex -0.40283756079999999 -0.54413987900000038 0.48591257270000054 
			vertex -0.49913950531613316 -0.085104286547811825 -0.25251323398124459 
			vertex -0.52285004390000001 -0.020233435800000001 -0.3573661729 
		endloop
	endfacet
	facet normal -0.026177466863859501 0.84745270449360877 0.53022509736437362 
		outer loop
			vertex -0.49913950531613316 -0.085104286547811825 -0.25251323398124459 
			vertex -0.41137629211312232 -0.15938304873420017 -0.12946142668072513 
			vertex -0.52285004390000001 -0.020233435800000001 -0.3573661729 
		endloop
	endfacet
	facet normal 0.027418283424204569 -0.98369470334597464 -0.17774410916580333 
		outer loop
			vertex -0.56497153850000004 -0.37305960500000002 -0.48591257269999999 
			vertex 0.37033230760000002 -0.4105663906 -0.13406039280000001 
			vertex -0.11176464946105083 -0.49385387364034344 0.25251323395835212 
		endloop
	endfacet
	facet normal -0.027418283424207931 0.98369470334597275 0.17774410916581287 
		outer loop
			vertex -0.56497153850000004 -0.37305960500000002 -0.48591257269999999 
			vertex -0.11363174366177731 -0.49417643443293946 0.25401037963849571 
			vertex -0.11176464946105083 -0.49385387364034344 0.25251323395835212 
		endloop
	endfacet
	facet normal -0.24499067410943909 -0.83877702496035467 -0.48624342874537557 
		outer loop
			vertex -0.11176464946105083 -0.49385387364034344 0.25251323395835212 
			vertex -0.11363174366177731 -0.49417643443293946 0.25401037963849571 
			vertex -0.18122717929038706 -0.40223142521959865 0.1294614266525268 
		endloop
	endfacet
	facet normal 0.24499067410944605 0.83877702496035489 0.4862434287453718 
		outer loop
			vertex -0.11176464946105083 -0.49385387364034344 0.25251323395835212 
			vertex 0.37033230760000002 -0.4105663906 -0.13406039280000001 
			vertex -0.18122717929038706 -0.40223142521959865 0.1294614266525268 
		endloop
	endfacet
	facet normal -0.84482718960301373 0.071612609778639022 0.53022509732015333 
		outer loop
			vertex -0.56497153849999981 -0.37305960500000002 -0.48591257269999955 
			vertex -0.11176464946105083 -0.49385387364034344 0.25251323395835212 
			vertex -0.18122717929038706 -0.40223142521959865 0.1294614266525268 
		endloop
	endfacet
	facet normal 0.84482718960301428 -0.071612609778634914 -0.53022509732015288 
		outer loop
			vertex -0.56497153849999981 -0.37305960500000002 -0.48591257269999955 
			vertex -0.11176464946105083 -0.49385387364034344 0.25251323395835212 
			vertex -0.048259521200000002 -0.52101111209999995 0.3573661729 
		endloop
	endfacet
	facet normal 0.84482718960301351 -0.07161260977863966 -0.53022509732015322 
		outer loop
			vertex -0.11176464946105083 -0.49385387364034344 0.25251323395835212 
			vertex -0.18122717929038706 -0.40223142521959865 0.1294614266525268 
			vertex -0.048259521200000002 -0.52101111209999995 0.3573661729 
		endloop
	endfacet
	facet normal -0.5200492893932761 -0.77139704947996057 0.36673604766256557 
		outer loop
			vertex 0.15447450736727564 0.01103018615827378 0.10532112009631611 
			vertex -0.39010351589999998 0.39182907760000002 0.13406039280000001 
			vertex -0.13314949287019578 0.19593079363320648 0.086378684720765223 
		endloop
	endfacet
	facet normal 0.52004928939327633 0.77139704947996068 -0.36673604766256551 
		outer loop
			vertex 0.15447450736727564 0.01103018615827378 0.10532112009631611 
			vertex 0.3966233629 -0.20796089139999999 -0.011928687 
			vertex -0.13314949287019578 0.19593079363320648 0.086378684720765223 
		endloop
	endfacet
	facet normal -0.4014647297971829 -0.31748784107208172 -0.85908529349550822 
		outer loop
			vertex -0.13314949287019578 0.19593079363320648 0.086378684720765223 
			vertex 0.3966233629 -0.20796089139999999 -0.011928687 
			vertex -0.14255000758179992 0.11266047791731848 0.12154549305681606 
		endloop
	endfacet
	facet normal 0.4014647297971829 0.31748784107208167 0.85908529349550811 
		outer loop
			vertex -0.13314949287019578 0.19593079363320648 0.086378684720765223 
			vertex -0.39010351589999998 0.39182907760000002 0.13406039280000001 
			vertex -0.14255000758179992 0.11266047791731848 0.12154549305681606 
		endloop
	endfacet
	facet normal 0.17521234463032051 0.3661792668891517 0.91390009234580416 
		outer loop
			vertex 0.15447450736727558 0.011030186158273891 0.10532112009631611 
			vertex -0.13314949287019578 0.19593079363320648 0.086378684720765223 
			vertex -0.14255000758179992 0.11266047791731848 0.12154549305681606 
		endloop
	endfacet
	facet normal -0.1752123446303202 -0.3661792668891512 -0.91390009234580416 
		outer loop
			vertex 0.15447450736727558 0.011030186158273891 0.10532112009631611 
			vertex -0.13314949287019578 0.19593079363320648 0.086378684720765223 
			vertex -0.18637916609999999 0.40721079399999999 0.011928687 
		endloop
	endfacet
	facet normal -0.17521234463032165 -0.36617926688915142 -0.91390009234580394 
		outer loop
			vertex -0.13314949287019578 0.19593079363320648 0.086378684720765223 
			vertex -0.14255000758179992 0.11266047791731848 0.12154549305681606 
			vertex -0.18637916609999999 0.40721079399999999 0.011928687 
		endloop
	endfacet
endsolid icosahedron_9_3_fixed