solid icosahedron_12_2_fixed
	facet normal -0.3881567359003058 0.43136422186726009 0.81440730379096749 
		outer loop
			vertex 0.037633529999999998 0.96525205199999997 0. 
			vertex -0.66676235480000001 0.25655303229999998 0.039650177000000002 
			vertex 0.20009138409999999 0.12742249520000001 0.52119965430000004 
		endloop
	endfacet
	facet normal -0.29240946227270287 -0.61561246394847946 0.73179095416974838 
		outer loop
			vertex 0.037633529999999998 0.96525205199999997 0. 
			vertex -0.3503710793 0.34220897080000001 -0.67916841920000004 
			vertex 0.60057365819999997 0.23584421119999999 -0.3886677422 
		endloop
	endfacet
	facet normal 0.70153828683916908 0.35592162621258361 0.6173846678473266 
		outer loop
			vertex -0.3503710793 0.34220897080000001 -0.67916841920000004 
			vertex -0.65811704370000002 -0.28787889129999999 0.033770362900000003 
			vertex 0.052399756300000003 -0.57052368490000005 -0.61065014959999997 
		endloop
	endfacet
	facet normal 0.81499276304995094 0.41170423642179976 0.40778231679236565 
		outer loop
			vertex 0.037633529999999998 0.96525205199999997 0. 
			vertex 0.20009138409999999 0.12742249520000001 0.52119965430000004 
			vertex 0.60057365819999997 0.23584421119999999 -0.3886677422 
		endloop
	endfacet
	facet normal 0.29775284198617952 0.059869043458686898 -0.95276384415262905 
		outer loop
			vertex -0.3503710793 0.34220897080000001 -0.67916841920000004 
			vertex 0.60057365819999997 0.23584421119999999 -0.3886677422 
			vertex 0.052399756300000003 -0.57052368490000005 -0.61065014959999997 
		endloop
	endfacet
	facet normal -0.83076530614661603 -0.37596154139109128 -0.41046549854762987 
		outer loop
			vertex 0.20009138409999999 0.12742249520000001 0.52119965430000004 
			vertex 0.60057365819999997 0.23584421119999999 -0.3886677422 
			vertex 0.73511934229999998 -0.61534421120000005 0.1186543728 
		endloop
	endfacet
	facet normal -0.69055378665080591 0.28663589711729009 0.66405973392910933 
		outer loop
			vertex 0.60057365819999997 0.23584421119999999 -0.3886677422 
			vertex 0.052399756300000003 -0.57052368490000005 -0.61065014959999997 
			vertex 0.73511934229999998 -0.61534421120000005 0.1186543728 
		endloop
	endfacet
	facet normal 0.0099875888137546803 -0.47088413924637362 0.88213852397222114 
		outer loop
			vertex 0.20009138409999999 0.12742249520000001 0.52119965430000004 
			vertex -0.26399151920000002 -0.65617962340000002 0.1081684466 
			vertex 0.73511934229999998 -0.61534421120000005 0.1186543728 
		endloop
	endfacet
	facet normal -0.044193177885609072 -0.011964325235651673 -0.99895135915119837 
		outer loop
			vertex -0.024577855663803883 0.085949779182661307 0.013283506833465856 
			vertex -0.66676235480000001 0.25655303229999998 0.039650177000000002 
			vertex 0.19382994273962628 0.21485818910667207 0.0020773187384814928 
		endloop
	endfacet
	facet normal 0.044193177885609058 0.011964325235651494 0.99895135915119826 
		outer loop
			vertex -0.66676235480000001 0.25655303229999998 0.039650177000000002 
			vertex 0.19382994273962628 0.21485818910667207 0.0020773187384814928 
			vertex 0.037633529999999998 0.96525205199999997 0. 
		endloop
	endfacet
	facet normal -0.5080084999713339 0.86132334854907111 0.0070322969995891072 
		outer loop
			vertex 0.19382994273962628 0.21485818910667207 0.0020773187384814928 
			vertex 0.20195887970000001 0.2198043157 -0.0165005724 
			vertex -0.024577855663803883 0.085949779182661307 0.013283506833465856 
		endloop
	endfacet
	facet normal 0.50800849997133479 -0.86132334854907067 -0.0070322969995797154 
		outer loop
			vertex 0.20195887970000001 0.2198043157 -0.0165005724 
			vertex -0.024577855663803883 0.085949779182661307 0.013283506833465856 
			vertex -0.65811704370000002 -0.28787889129999999 0.033770362900000003 
		endloop
	endfacet
	facet normal 0.7569855429192226 0.20493708910490149 -0.62046247051735492 
		outer loop
			vertex 0.29895416899999999 0. 0. 
			vertex 0.17293224144489228 0.066416381518655587 -0.13181393112225098 
			vertex 0.26705048913940765 0.11784408880737778 1.7408295985288369e-10 
		endloop
	endfacet
	facet normal -0.75698554291922282 -0.20493708910490158 0.62046247051735459 
		outer loop
			vertex -0.3503710793 0.34220897080000001 -0.67916841920000004 
			vertex 0.17293224144489228 0.066416381518655587 -0.13181393112225098 
			vertex 0.26705048913940765 0.11784408880737778 1.7408295985288369e-10 
		endloop
	endfacet
	facet normal 0.75698554291922293 0.20493708910490174 -0.62046247051735459 
		outer loop
			vertex -0.3503710793 0.34220897080000001 -0.67916841920000004 
			vertex 0.037633529999999998 0.96525205199999997 0. 
			vertex 0.26705048913940765 0.11784408880737778 1.7408295985288369e-10 
		endloop
	endfacet
	facet normal 0.21242071046248509 -0.77589005159597202 -0.5940303608411045 
		outer loop
			vertex 0.17293224144489228 0.066416381518655587 -0.13181393112225098 
			vertex 0.29895416899999999 0. 0. 
			vertex -0.65811704370000002 -0.28787889129999999 0.033770362900000003 
		endloop
	endfacet
	facet normal -0.21242070781756231 0.77589004801807249 0.59403036646016594 
		outer loop
			vertex 0.17293224144489228 0.066416381518655587 -0.13181393112225098 
			vertex -0.3503710793 0.34220897080000001 -0.67916841920000004 
			vertex -0.65811704370000002 -0.28787889129999999 0.033770362900000003 
		endloop
	endfacet
	facet normal 0.044193174494221991 0.011964324530164291 0.99895135930968137 
		outer loop
			vertex 0.26705048913940765 0.11784408880737778 1.7408295985288369e-10 
			vertex 0.037633529999999998 0.96525205199999997 0. 
			vertex 0.19382994273962628 0.21485818910667207 0.0020773187384814928 
		endloop
	endfacet
	facet normal -0.69630738232453615 -0.34244192733007683 0.63078487277899642 
		outer loop
			vertex 0.20195887970000001 0.2198043157 -0.0165005724 
			vertex 0.17293224144489228 0.066416381518655587 -0.13181393112225098 
			vertex 0.26705048913940765 0.11784408880737778 1.7408295985288369e-10 
		endloop
	endfacet
	facet normal 0.69630738232453626 0.34244192733007678 -0.6307848727789962 
		outer loop
			vertex 0.052399756300000003 -0.57052368490000005 -0.61065014959999997 
			vertex 0.17293224144489228 0.066416381518655587 -0.13181393112225098 
			vertex 0.26705048913940765 0.11784408880737778 1.7408295985288369e-10 
		endloop
	endfacet
	facet normal -0.69630738232453615 -0.34244192733007678 0.63078487277899631 
		outer loop
			vertex 0.052399756300000003 -0.57052368490000005 -0.61065014959999997 
			vertex 0.73511934229999998 -0.61534421120000005 0.1186543728 
			vertex 0.26705048913940765 0.11784408880737778 1.7408295985288369e-10 
		endloop
	endfacet
	facet normal 0.39418045844556315 -0.5987494375711222 0.6972236923598556 
		outer loop
			vertex 0.17293224144489228 0.066416381518655587 -0.13181393112225098 
			vertex 0.20195887970000001 0.2198043157 -0.0165005724 
			vertex -0.65811704370000002 -0.28787889129999999 0.033770362900000003 
		endloop
	endfacet
	facet normal -0.39418045844556315 0.5987494375711222 -0.69722369235985548 
		outer loop
			vertex 0.17293224144489228 0.066416381518655587 -0.13181393112225098 
			vertex 0.052399756300000003 -0.57052368490000005 -0.61065014959999997 
			vertex -0.65811704370000002 -0.28787889129999999 0.033770362900000003 
		endloop
	endfacet
	facet normal -0.28970903784644902 0.94641142705741321 -0.14273781603077423 
		outer loop
			vertex -0.18748872280000012 -0.017158666399999967 0.87354386989999977 
			vertex -0.45651920275465913 -0.21988610764720951 0.075416165249712439 
			vertex -0.65811704370000002 -0.28787889129999999 0.033770362900000003 
		endloop
	endfacet
	facet normal 0.85721244415609277 0.34990781829143031 -0.37782448872785995 
		outer loop
			vertex -0.18748872280000001 -0.017158666400000001 0.87354386989999999 
			vertex -0.26399151920000002 -0.65617962340000002 0.1081684466 
			vertex -0.45651920275465913 -0.21988610764720951 0.075416165249712439 
		endloop
	endfacet
	facet normal 0.044193177885609093 0.011964325235651637 0.99895135915119837 
		outer loop
			vertex 0.19382994273962628 0.21485818910667207 0.0020773187384814928 
			vertex -0.024577855663803883 0.085949779182661307 0.013283506833465856 
			vertex 0.11152659297318708 0.04979216218368665 0.0076953602545787141 
		endloop
	endfacet
	facet normal -0.86616707884697064 0.42281035967427733 -0.26643196368644295 
		outer loop
			vertex 0.19382994273962628 0.21485818910667207 0.0020773187384814928 
			vertex 0.20195887970000001 0.2198043157 -0.0165005724 
			vertex 0.11152659297318708 0.04979216218368665 0.0076953602545787141 
		endloop
	endfacet
	facet normal 0.25956591110284988 0.95182912600952052 0.16323863719505799 
		outer loop
			vertex -0.66676235480000001 0.25655303229999998 0.039650177000000002 
			vertex -0.18748872280000001 -0.017158666400000001 0.87354386989999999 
			vertex -0.086378243493472132 0.046835495172402507 0.33962406966133851 
		endloop
	endfacet
	facet normal -0.25956591110284993 -0.95182912600952052 -0.16323863719505799 
		outer loop
			vertex -0.66676235480000001 0.25655303229999998 0.039650177000000002 
			vertex -0.024577855663803883 0.085949779182661307 0.013283506833465856 
			vertex -0.086378243493472132 0.046835495172402507 0.33962406966133851 
		endloop
	endfacet
	facet normal 0.5080084999713339 -0.86132334854907122 -0.0070322969995902885 
		outer loop
			vertex -0.086378243493472132 0.046835495172402507 0.33962406966133851 
			vertex -0.024577855663803883 0.085949779182661307 0.013283506833465856 
			vertex 0.19382994273962628 0.21485818910667207 0.0020773187384814928 
		endloop
	endfacet
	facet normal -0.25956590564678178 -0.9518291276410652 -0.16323863635737343 
		outer loop
			vertex -0.086378243493472132 0.046835495172402507 0.33962406966133851 
			vertex -0.024577855663803883 0.085949779182661307 0.013283506833465856 
			vertex 0.11152659297318708 0.04979216218368665 0.0076953602545787141 
		endloop
	endfacet
	facet normal 0.044193170903927971 0.011964321816324184 0.99895135950101777 
		outer loop
			vertex 0.26705048913940765 0.11784408880737778 1.7408295985288369e-10 
			vertex 0.19382994273962628 0.21485818910667207 0.0020773187384814928 
			vertex 0.24583770587189974 0.10856210300362377 0.0010496136628351698 
		endloop
	endfacet
	facet normal -0.044193170903927978 -0.01196432181632417 -0.99895135950101777 
		outer loop
			vertex 0.26705048913940765 0.11784408880737778 1.7408295985288369e-10 
			vertex 0.29895416899999999 0. 0. 
			vertex 0.24583770587189974 0.10856210300362377 0.0010496136628351698 
		endloop
	endfacet
	facet normal -0.044193177885609052 -0.011964325235651638 -0.99895135915119837 
		outer loop
			vertex 0.24583770587189974 0.10856210300362377 0.0010496136628351698 
			vertex 0.29895416899999999 0. 0. 
			vertex 0.11152659297318708 0.04979216218368665 0.0076953602545787141 
		endloop
	endfacet
	facet normal 0.044193177885609045 0.011964325235651649 0.99895135915119826 
		outer loop
			vertex 0.24583770587189974 0.10856210300362377 0.0010496136628351698 
			vertex 0.19382994273962628 0.21485818910667207 0.0020773187384814928 
			vertex 0.11152659297318708 0.04979216218368665 0.0076953602545787141 
		endloop
	endfacet
	facet normal 0.016484982609386578 -0.14946916330261037 -0.98862895697525766 
		outer loop
			vertex 0.24583770587189974 0.10856210300362377 0.0010496136628351698 
			vertex 0.11152659297318708 0.04979216218368665 0.0076953602545787141 
			vertex 0.20195887970000001 0.2198043157 -0.0165005724 
		endloop
	endfacet
	facet normal -0.016484982609386762 0.14946916330261029 0.98862895697525766 
		outer loop
			vertex 0.24583770587189974 0.10856210300362377 0.0010496136628351698 
			vertex 0.26705048913940765 0.11784408880737778 1.7408295985288369e-10 
			vertex 0.20195887970000001 0.2198043157 -0.0165005724 
		endloop
	endfacet
	facet normal -0.016484982609386637 0.14946916330261037 0.98862895697525754 
		outer loop
			vertex 0.26705048913940765 0.11784408880737778 1.7408295985288369e-10 
			vertex 0.20267118754697794 0.024007621587552985 0.013113480700820995 
			vertex 0.28880064998917265 -0.0003581527213773638 0.018233474965583502 
		endloop
	endfacet
	facet normal -0.016484982609386599 0.14946916330261037 0.98862895697525766 
		outer loop
			vertex 0.26705048913940765 0.11784408880737778 1.7408295985288369e-10 
			vertex 0.28880064998917265 -0.0003581527213773638 0.018233474965583502 
			vertex 0.73511934229999998 -0.61534421120000005 0.1186543728 
		endloop
	endfacet
	facet normal 0.016484982609386582 -0.1494691633026104 -0.98862895697525777 
		outer loop
			vertex -0.26399151920000002 -0.65617962340000002 0.1081684466 
			vertex 0.28880064998917265 -0.0003581527213773638 0.018233474965583502 
			vertex 0.73511934229999998 -0.61534421120000005 0.1186543728 
		endloop
	endfacet
	facet normal -0.0164849826093868 0.14946916330261054 0.98862895697525754 
		outer loop
			vertex 0.20267118754697794 0.024007621587552985 0.013113480700820995 
			vertex 0.26705048913940765 0.11784408880737778 1.7408295985288369e-10 
			vertex 0.24583770587189974 0.10856210300362377 0.0010496136628351698 
		endloop
	endfacet
	facet normal -0.25956591505831356 -0.95182912455799318 -0.16323863936919111 
		outer loop
			vertex 0.29895416899999999 0. 0. 
			vertex 0.28880064998917265 -0.0003581527213773638 0.018233474965583502 
			vertex 0.20267118754697794 0.024007621587552985 0.013113480700820995 
		endloop
	endfacet
	facet normal -0.85721244415609332 -0.34990781829143042 0.37782448872785901 
		outer loop
			vertex -0.66676235480000001 0.25655303229999998 0.039650177000000002 
			vertex -0.47423467135890374 -0.17974048319544211 0.072402458330968575 
			vertex -0.44779037081016299 -0.16474685399612402 0.14628536539921588 
		endloop
	endfacet
	facet normal -0.85721244415609288 -0.34990781829142997 0.37782448872786001 
		outer loop
			vertex -0.66676235480000001 0.25655303229999998 0.039650177000000002 
			vertex -0.44779037081016299 -0.16474685399612402 0.14628536539921588 
			vertex -0.18748872280000001 -0.017158666400000001 0.87354386989999999 
		endloop
	endfacet
	facet normal -0.8572124441560931 -0.34990781829143064 0.37782448872785901 
		outer loop
			vertex -0.47423467135890374 -0.17974048319544211 0.072402458330968575 
			vertex -0.45651920275465913 -0.21988610764720951 0.075416165249712439 
			vertex -0.44779037081016299 -0.16474685399612402 0.14628536539921588 
		endloop
	endfacet
	facet normal 0.85721244415609199 0.3499078182914323 -0.37782448872786012 
		outer loop
			vertex -0.45651920275465913 -0.21988610764720951 0.075416165249712439 
			vertex -0.44779037081016299 -0.16474685399612402 0.14628536539921588 
			vertex -0.18748872280000001 -0.017158666400000001 0.87354386989999999 
		endloop
	endfacet
	facet normal 0.4973042713572553 0.1553750809276031 -0.853549673959618 
		outer loop
			vertex -0.47423467135890374 -0.17974048319544211 0.072402458330968575 
			vertex -0.66676235480000001 0.25655303229999998 0.039650177000000002 
			vertex -0.086378243493472132 0.046835495172402507 0.33962406966133851 
		endloop
	endfacet
	facet normal -0.49730427135725519 -0.15537508092760327 0.85354967395961789 
		outer loop
			vertex -0.47423467135890374 -0.17974048319544211 0.072402458330968575 
			vertex -0.45651920275465913 -0.21988610764720951 0.075416165249712439 
			vertex -0.086378243493472132 0.046835495172402507 0.33962406966133851 
		endloop
	endfacet
	facet normal 0.50800849997133524 -0.86132334854907033 -0.00703229699959226 
		outer loop
			vertex -0.086378243493472132 0.046835495172402507 0.33962406966133851 
			vertex -0.44779037081016299 -0.16474685399612402 0.14628536539921588 
			vertex -0.47423467135890374 -0.17974048319544211 0.072402458330968575 
		endloop
	endfacet
	facet normal 0.50800849997133446 -0.86132334854907078 -0.0070322969995901593 
		outer loop
			vertex -0.086378243493472132 0.046835495172402507 0.33962406966133851 
			vertex -0.47423467135890374 -0.17974048319544211 0.072402458330968575 
			vertex -0.024577855663803883 0.085949779182661307 0.013283506833465856 
		endloop
	endfacet
	facet normal 0.50800849997133535 -0.86132334854907044 -0.0070322969995919582 
		outer loop
			vertex -0.44779037081016299 -0.16474685399612402 0.14628536539921588 
			vertex -0.65811704370000002 -0.28787889129999999 0.033770362900000003 
			vertex -0.47423467135890374 -0.17974048319544211 0.072402458330968575 
		endloop
	endfacet
	facet normal -0.50800849997133468 0.86132334854907078 0.0070322969995879215 
		outer loop
			vertex -0.65811704370000002 -0.28787889129999999 0.033770362900000003 
			vertex -0.47423467135890374 -0.17974048319544211 0.072402458330968575 
			vertex -0.024577855663803883 0.085949779182661307 0.013283506833465856 
		endloop
	endfacet
	facet normal 0.50800849997133457 -0.86132334854907078 -0.0070322969995900977 
		outer loop
			vertex -0.44779037081016299 -0.16474685399612402 0.14628536539921588 
			vertex -0.086378243493472132 0.046835495172402507 0.33962406966133851 
			vertex -0.18748872280000001 -0.017158666400000001 0.87354386989999999 
		endloop
	endfacet
	facet normal -0.50800849997133446 0.86132334854907067 0.0070322969995900578 
		outer loop
			vertex -0.44779037081016299 -0.16474685399612402 0.14628536539921588 
			vertex -0.65811704370000002 -0.28787889129999999 0.033770362900000003 
			vertex -0.18748872280000001 -0.017158666400000001 0.87354386989999999 
		endloop
	endfacet
	facet normal -0.49730427135725519 -0.15537508092760308 0.853549673959618 
		outer loop
			vertex -0.26399151920000002 -0.65617962340000002 0.10816844660000002 
			vertex -0.042662729767787774 -0.05222971354319482 0.34706083294849077 
			vertex -0.45651920275465913 -0.21988610764720951 0.075416165249712439 
		endloop
	endfacet
	facet normal 0.86616707884697142 -0.42281035967427816 0.26643196368643951 
		outer loop
			vertex -0.26399151920000002 -0.65617962340000002 0.1081684466 
			vertex 0.042595607440768457 -0.072875863457227297 0.03712290427146972 
			vertex -0.042662729767787774 -0.05222971354319482 0.34706083294849077 
		endloop
	endfacet
	facet normal -0.86616707884697119 0.42281035967427816 -0.26643196368643945 
		outer loop
			vertex -0.26399151920000002 -0.65617962340000002 0.1081684466 
			vertex -0.18748872280000001 -0.017158666400000001 0.87354386989999999 
			vertex -0.042662729767787774 -0.05222971354319482 0.34706083294849077 
		endloop
	endfacet
	facet normal 0.28970903784644958 -0.94641142705741299 0.14273781603077385 
		outer loop
			vertex -0.042662729767787774 -0.05222971354319482 0.34706083294849077 
			vertex -0.18748872280000001 -0.017158666400000001 0.87354386989999999 
			vertex -0.45651920275465913 -0.21988610764720951 0.075416165249712439 
		endloop
	endfacet
	facet normal -0.28970903784644969 0.94641142705741332 -0.1427378160307739 
		outer loop
			vertex -0.042662729767787774 -0.05222971354319482 0.34706083294849077 
			vertex 0.042595607440768457 -0.072875863457227297 0.03712290427146972 
			vertex -0.45651920275465913 -0.21988610764720951 0.075416165249712439 
		endloop
	endfacet
	facet normal 0.28970903784644947 -0.94641142705741321 0.14273781603077382 
		outer loop
			vertex -0.042662729767787774 -0.05222971354319482 0.34706083294849077 
			vertex 0.042595607440768457 -0.072875863457227297 0.03712290427146972 
			vertex 0.28880064998917265 -0.0003581527213773638 0.018233474965583502 
		endloop
	endfacet
	facet normal 0.5080084999713339 -0.86132334854907111 -0.0070322969995902868 
		outer loop
			vertex -0.086378243493472132 0.046835495172402507 0.33962406966133851 
			vertex 0.19382994273962628 0.21485818910667207 0.0020773187384814928 
			vertex 0.015438747034653172 0.10631442238869582 0.4097729657863099 
		endloop
	endfacet
	facet normal -0.50800849997133379 0.86132334854907111 0.0070322969995903111 
		outer loop
			vertex -0.086378243493472132 0.046835495172402507 0.33962406966133851 
			vertex -0.18748872280000001 -0.017158666400000001 0.87354386989999999 
			vertex 0.015438747034653172 0.10631442238869582 0.4097729657863099 
		endloop
	endfacet
	facet normal -0.49730427135725513 -0.15537508092760258 0.85354967395961823 
		outer loop
			vertex -0.086378243493472229 0.046835495172402569 0.33962406966133846 
			vertex 0.015438747034653172 0.10631442238869582 0.4097729657863099 
			vertex -0.66676235480000001 0.25655303229999998 0.039650177000000002 
		endloop
	endfacet
	facet normal 0.49730427135725519 0.1553750809276033 -0.853549673959618 
		outer loop
			vertex 0.015438747034653172 0.10631442238869582 0.4097729657863099 
			vertex -0.66676235480000001 0.25655303229999998 0.039650177000000002 
			vertex 0.20009138409999999 0.12742249520000001 0.52119965430000004 
		endloop
	endfacet
	facet normal 0.25956590564678195 0.95182912764106509 0.16323863635737348 
		outer loop
			vertex -0.086378243493472132 0.046835495172402507 0.33962406966133851 
			vertex -0.18748872280000001 -0.017158666400000001 0.87354386989999999 
			vertex -0.015715623897080366 0.021302076890692904 0.37614633259430319 
		endloop
	endfacet
	facet normal 0.49730427135725447 0.15537508092760449 -0.85354967395961823 
		outer loop
			vertex -0.086378243493472132 0.046835495172402507 0.33962406966133851 
			vertex -0.015715623897080366 0.021302076890692904 0.37614633259430319 
			vertex -0.45651920275465913 -0.21988610764720951 0.075416165249712439 
		endloop
	endfacet
	facet normal 0.8661670788469702 -0.42281035967427694 0.26643196368644473 
		outer loop
			vertex 0.11152659297318708 0.04979216218368665 0.0076953602545787141 
			vertex 0.19382994273962628 0.21485818910667207 0.0020773187384814928 
			vertex 0.10647611732261937 0.048661338738496596 0.022319851323663271 
		endloop
	endfacet
	facet normal -0.86616707884697031 0.42281035967427688 -0.26643196368644478 
		outer loop
			vertex 0.11152659297318708 0.04979216218368665 0.0076953602545787141 
			vertex 0.042595607440768457 -0.072875863457227297 0.03712290427146972 
			vertex 0.10647611732261937 0.048661338738496596 0.022319851323663271 
		endloop
	endfacet
	facet normal -0.86616707884697131 0.4228103596742781 -0.26643196368643945 
		outer loop
			vertex 0.10647611732261937 0.048661338738496596 0.022319851323663271 
			vertex 0.042595607440768457 -0.072875863457227297 0.03712290427146972 
			vertex -0.042662729767787774 -0.05222971354319482 0.34706083294849077 
		endloop
	endfacet
	facet normal 0.25956590564677945 0.95182912764106598 0.16323863635737207 
		outer loop
			vertex 0.10647611732261937 0.048661338738496596 0.022319851323663271 
			vertex 0.11152659297318708 0.04979216218368665 0.0076953602545787141 
			vertex -0.086378243493472132 0.046835495172402507 0.33962406966133851 
		endloop
	endfacet
	facet normal -0.86616707884696897 0.42281035967427416 -0.26643196368645328 
		outer loop
			vertex 0.042595607440768457 -0.072875863457227297 0.03712290427146972 
			vertex 0.11152659297318708 0.04979216218368665 0.0076953602545787141 
			vertex 0.045857299017030118 -0.073665714344092498 0.025265742095565695 
		endloop
	endfacet
	facet normal 0.86616707884696864 -0.42281035967427499 0.26643196368645322 
		outer loop
			vertex 0.042595607440768457 -0.072875863457227297 0.03712290427146972 
			vertex -0.26399151920000002 -0.65617962340000002 0.1081684466 
			vertex 0.045857299017030118 -0.073665714344092498 0.025265742095565695 
		endloop
	endfacet
	facet normal 0.28970903784644975 -0.94641142705741244 0.14273781603077842 
		outer loop
			vertex 0.042595607440768457 -0.072875863457227297 0.03712290427146972 
			vertex -0.45651920275465913 -0.21988610764720951 0.075416165249712439 
			vertex 0.045857299017030118 -0.073665714344092498 0.025265742095565695 
		endloop
	endfacet
	facet normal 0.28970903784644952 -0.94641142705741366 0.14273781603077193 
		outer loop
			vertex 0.045857299017030118 -0.073665714344092498 0.025265742095565695 
			vertex -0.45651920275465913 -0.21988610764720951 0.075416165249712439 
			vertex -0.65811704370000002 -0.28787889129999999 0.033770362900000003 
		endloop
	endfacet
	facet normal -0.28970903784644952 0.94641142705741377 -0.14273781603077088 
		outer loop
			vertex 0.045857299017030118 -0.073665714344092498 0.025265742095565695 
			vertex 0.29895416899999999 0. 0. 
			vertex -0.65811704370000002 -0.28787889129999999 0.033770362900000003 
		endloop
	endfacet
	facet normal 0.016484982609386637 -0.14946916330261045 -0.98862895697525766 
		outer loop
			vertex 0.28880064998917265 -0.0003581527213773638 0.018233474965583502 
			vertex -0.26399151920000002 -0.65617962340000002 0.1081684466 
			vertex 0.15910418585131972 -0.039493743375396725 0.021987684275771833 
		endloop
	endfacet
	facet normal -0.016484982609386627 0.14946916330261042 0.98862895697525766 
		outer loop
			vertex 0.28880064998917265 -0.0003581527213773638 0.018233474965583502 
			vertex 0.20267118754697794 0.024007621587552985 0.013113480700820995 
			vertex 0.15910418585131972 -0.039493743375396725 0.021987684275771833 
		endloop
	endfacet
	facet normal 0.28970903784644947 -0.94641142705741321 0.14273781603077365 
		outer loop
			vertex 0.28880064998917265 -0.0003581527213773638 0.018233474965583502 
			vertex 0.15910418585131972 -0.039493743375396725 0.021987684275771833 
			vertex 0.29895416899999999 0. 0. 
		endloop
	endfacet
	facet normal -0.28970903784644952 0.94641142705741332 -0.14273781603077362 
		outer loop
			vertex 0.28880064998917265 -0.0003581527213773638 0.018233474965583502 
			vertex 0.15910418585131972 -0.039493743375396725 0.021987684275771833 
			vertex 0.042595607440768457 -0.072875863457227297 0.03712290427146972 
		endloop
	endfacet
	facet normal 0.25956591505831328 0.9518291245579934 0.1632386393691907 
		outer loop
			vertex 0.16480253142255885 0.034720554221239971 0.010862365936402104 
			vertex 0.29895416899999999 0. 0. 
			vertex 0.11152659297318708 0.04979216218368665 0.0076953602545787141 
		endloop
	endfacet
	facet normal 0.25956591505831333 0.95182912455799273 0.16323863936919386 
		outer loop
			vertex 0.19156290272829618 0.027150123040327823 0.012453145050854875 
			vertex 0.29895416899999999 0. 0. 
			vertex 0.16480253142255885 0.034720554221239971 0.010862365936402104 
		endloop
	endfacet
	facet normal -0.25956591505831328 -0.95182912455799329 -0.1632386393691905 
		outer loop
			vertex 0.16480253142255885 0.034720554221239971 0.010862365936402104 
			vertex 0.10647611732261937 0.048661338738496596 0.022319851323663271 
			vertex 0.11152659297318708 0.04979216218368665 0.0076953602545787141 
		endloop
	endfacet
	facet normal -0.25956591505831345 -0.95182912455799307 -0.16323863936919211 
		outer loop
			vertex 0.19156290272829618 0.027150123040327823 0.012453145050854875 
			vertex 0.10647611732261937 0.048661338738496596 0.022319851323663271 
			vertex 0.16480253142255885 0.034720554221239971 0.010862365936402104 
		endloop
	endfacet
	facet normal 0.016484983445725111 -0.14946916384669515 -0.98862895687905261 
		outer loop
			vertex 0.24583770587189974 0.10856210300362377 0.0010496136628351698 
			vertex 0.19156290272829618 0.027150123040327823 0.012453145050854875 
			vertex 0.16480253142255885 0.034720554221239971 0.010862365936402104 
		endloop
	endfacet
	facet normal -0.016484982307341876 0.1494691626244892 0.98862895708281806 
		outer loop
			vertex 0.16480253142255885 0.034720554221239971 0.010862365936402104 
			vertex 0.24583770587189974 0.10856210300362377 0.0010496136628351698 
			vertex 0.11152659297318708 0.04979216218368665 0.0076953602545787141 
		endloop
	endfacet
	facet normal 0.016484982307341887 -0.14946916262448917 -0.98862895708281817 
		outer loop
			vertex 0.16480253142255885 0.034720554221239971 0.010862365936402104 
			vertex 0.045857299017030118 -0.073665714344092498 0.025265742095565695 
			vertex 0.11152659297318708 0.04979216218368665 0.0076953602545787141 
		endloop
	endfacet
	facet normal -0.25956591505831311 -0.95182912455799329 -0.16323863936919103 
		outer loop
			vertex 0.28880064998917265 -0.0003581527213773638 0.018233474965583502 
			vertex 0.065979586170410248 -0.0082178878833235724 0.41837083469393588 
			vertex 0.032940005754727844 0.0037207220940972258 0.40129419297307539 
		endloop
	endfacet
	facet normal -0.25956591505831356 -0.95182912455799318 -0.16323863936919134 
		outer loop
			vertex 0.28880064998917265 -0.0003581527213773638 0.018233474965583502 
			vertex 0.032940005754727844 0.0037207220940972258 0.40129419297307539 
			vertex 0.20267118754697794 0.024007621587552985 0.013113480700820995 
		endloop
	endfacet
	facet normal -0.25956591505831328 -0.95182912455799318 -0.1632386393691912 
		outer loop
			vertex 0.065979586170410248 -0.0082178878833235724 0.41837083469393588 
			vertex -0.18748872280000001 -0.017158666400000001 0.87354386989999999 
			vertex 0.032940005754727844 0.0037207220940972258 0.40129419297307539 
		endloop
	endfacet
	facet normal -0.28970903784644941 0.94641142705741332 -0.14273781603077379 
		outer loop
			vertex 0.065979586170410248 -0.0082178878833235724 0.41837083469393588 
			vertex 0.28880064998917265 -0.0003581527213773638 0.018233474965583502 
			vertex -0.042662729767787774 -0.05222971354319482 0.34706083294849077 
		endloop
	endfacet
	facet normal 0.28970903784644947 -0.94641142705741343 0.14273781603077385 
		outer loop
			vertex 0.065979586170410248 -0.0082178878833235724 0.41837083469393588 
			vertex -0.18748872280000001 -0.017158666400000001 0.87354386989999999 
			vertex -0.042662729767787774 -0.05222971354319482 0.34706083294849077 
		endloop
	endfacet
	facet normal 0.49730427135725769 0.15537508092759875 -0.85354967395961723 
		outer loop
			vertex -0.042662729767787774 -0.05222971354319482 0.34706083294849077 
			vertex 0.032940005754727844 0.0037207220940972258 0.40129419297307539 
			vertex 0.065979586170410248 -0.0082178878833235724 0.41837083469393588 
		endloop
	endfacet
	facet normal 0.49730427135725636 0.15537508092760255 -0.85354967395961756 
		outer loop
			vertex -0.042662729767787774 -0.05222971354319482 0.34706083294849077 
			vertex 0.065979586170410248 -0.0082178878833235724 0.41837083469393588 
			vertex -0.26399151920000002 -0.65617962340000002 0.10816844660000002 
		endloop
	endfacet
	facet normal 0.49730427135725785 0.15537508092759905 -0.85354967395961734 
		outer loop
			vertex 0.032940005754727844 0.0037207220940972258 0.40129419297307539 
			vertex 0.20009138409999999 0.12742249520000001 0.52119965430000004 
			vertex 0.065979586170410248 -0.0082178878833235724 0.41837083469393588 
		endloop
	endfacet
	facet normal -0.49730427135725347 -0.15537508092760458 0.85354967395961878 
		outer loop
			vertex 0.20009138409999999 0.12742249520000001 0.52119965430000004 
			vertex 0.065979586170410248 -0.0082178878833235724 0.41837083469393588 
			vertex -0.26399151920000002 -0.65617962340000002 0.10816844660000002 
		endloop
	endfacet
	facet normal 0.86616707884697108 -0.42281035967427871 0.26643196368643918 
		outer loop
			vertex 0.0028391423151843953 0.071933309321228656 0.39617351654067318 
			vertex 0.015438747034653172 0.10631442238869582 0.4097729657863099 
			vertex -0.18748872280000001 -0.017158666400000001 0.87354386989999999 
		endloop
	endfacet
	facet normal -0.86616707884697097 0.42281035967427871 -0.26643196368643923 
		outer loop
			vertex 0.0028391423151843953 0.071933309321228656 0.39617351654067318 
			vertex 0.015438747034653172 0.10631442238869582 0.4097729657863099 
			vertex 0.19382994273962628 0.21485818910667207 0.0020773187384814928 
		endloop
	endfacet
	facet normal 0.49730427135725552 0.15537508092760186 -0.85354967395961812 
		outer loop
			vertex 0.015438747034653172 0.10631442238869582 0.4097729657863099 
			vertex 0.20009138409999999 0.12742249520000001 0.52119965430000004 
			vertex 0.0028391423151843953 0.071933309321228656 0.39617351654067318 
		endloop
	endfacet
	facet normal -0.49730427135725547 -0.15537508092760183 0.85354967395961823 
		outer loop
			vertex 0.015438747034653172 0.10631442238869582 0.4097729657863099 
			vertex -0.086378243493472229 0.046835495172402569 0.33962406966133846 
			vertex 0.0028391423151843953 0.071933309321228656 0.39617351654067318 
		endloop
	endfacet
	facet normal -0.49730427135725458 -0.15537508092760485 0.85354967395961812 
		outer loop
			vertex 0.0028391423151843953 0.071933309321228656 0.39617351654067318 
			vertex -0.086378243493472229 0.046835495172402569 0.33962406966133846 
			vertex -0.015715623897080366 0.021302076890692904 0.37614633259430319 
		endloop
	endfacet
	facet normal 0.49730427135725463 0.15537508092760491 -0.85354967395961812 
		outer loop
			vertex 0.0028391423151843953 0.071933309321228656 0.39617351654067318 
			vertex 0.20009138409999999 0.12742249520000001 0.52119965430000004 
			vertex -0.015715623897080366 0.021302076890692904 0.37614633259430319 
		endloop
	endfacet
	facet normal -0.86616707884697119 0.4228103596742781 -0.26643196368643945 
		outer loop
			vertex -0.18748872280000001 -0.017158666400000001 0.87354386989999999 
			vertex 0.0028391423151843953 0.071933309321228656 0.39617351654067318 
			vertex -0.015715623897080425 0.021302076890692918 0.37614633259430325 
		endloop
	endfacet
	facet normal -0.86616707884697142 0.42281035967427794 -0.26643196368643962 
		outer loop
			vertex -0.015715623897080425 0.021302076890692918 0.37614633259430325 
			vertex 0.0028391423151843953 0.071933309321228656 0.39617351654067318 
			vertex 0.19382994273962628 0.21485818910667207 0.0020773187384814928 
		endloop
	endfacet
	facet normal -0.25956591505831056 -0.95182912455799407 -0.16323863936919022 
		outer loop
			vertex -0.015715623897080366 0.021302076890692904 0.37614633259430319 
			vertex -0.0066973025674182396 0.01804337264411035 0.38080748870865677 
			vertex -0.18748872280000001 -0.017158666400000001 0.87354386989999999 
		endloop
	endfacet
	facet normal 0.25956591505831078 0.95182912455799418 0.16323863936918978 
		outer loop
			vertex -0.015715623897080366 0.021302076890692904 0.37614633259430319 
			vertex -0.0066973025674182396 0.01804337264411035 0.38080748870865677 
			vertex 0.20267118754697794 0.024007621587552985 0.013113480700820995 
		endloop
	endfacet
	facet normal 0.49730427135725824 0.15537508092759661 -0.85354967395961745 
		outer loop
			vertex -0.015715623897080366 0.021302076890692904 0.37614633259430319 
			vertex 0.20009138409999999 0.12742249520000001 0.52119965430000004 
			vertex -0.0066973025674182396 0.01804337264411035 0.38080748870865677 
		endloop
	endfacet
	facet normal -0.86616707884697131 0.42281035967427788 -0.26643196368643951 
		outer loop
			vertex 0.10647611732261937 0.048661338738496596 0.022319851323663271 
			vertex -0.042662729767787774 -0.05222971354319482 0.34706083294849077 
			vertex 0.031882518231289875 0.031959507752715138 0.23831800658640867 
		endloop
	endfacet
	facet normal 0.86616707884697142 -0.42281035967427827 0.26643196368643951 
		outer loop
			vertex 0.10647611732261937 0.048661338738496596 0.022319851323663271 
			vertex 0.19382994273962628 0.21485818910667207 0.0020773187384814928 
			vertex 0.031882518231289875 0.031959507752715138 0.23831800658640867 
		endloop
	endfacet
	facet normal 0.86616707884697119 -0.42281035967427832 0.26643196368643929 
		outer loop
			vertex 0.031882518231289875 0.031959507752715138 0.23831800658640867 
			vertex 0.19382994273962628 0.21485818910667207 0.0020773187384814928 
			vertex -0.015715623897080425 0.021302076890692918 0.37614633259430325 
		endloop
	endfacet
	facet normal -0.25956590564678184 -0.95182912764106509 -0.16323863635737373 
		outer loop
			vertex 0.031882518231289875 0.031959507752715138 0.23831800658640867 
			vertex -0.015715623897080366 0.021302076890692904 0.37614633259430319 
			vertex -0.086378243493472132 0.046835495172402507 0.33962406966133851 
		endloop
	endfacet
	facet normal 0.25956590564678156 0.9518291276410652 0.16323863635737329 
		outer loop
			vertex 0.031882518231289875 0.031959507752715138 0.23831800658640867 
			vertex 0.10647611732261937 0.048661338738496596 0.022319851323663271 
			vertex -0.086378243493472132 0.046835495172402507 0.33962406966133851 
		endloop
	endfacet
	facet normal 0.25956591505831361 0.95182912455799285 0.16323863936919147 
		outer loop
			vertex 0.031882518231289875 0.031959507752715138 0.23831800658640867 
			vertex -0.015715623897080366 0.021302076890692904 0.37614633259430319 
			vertex 0.20267118754697794 0.024007621587552985 0.013113480700820995 
		endloop
	endfacet
	facet normal -0.25956591505831295 -0.95182912455799318 -0.16323863936919097 
		outer loop
			vertex 0.031882518231289875 0.031959507752715138 0.23831800658640867 
			vertex 0.10647611732261937 0.048661338738496596 0.022319851323663271 
			vertex 0.20267118754697794 0.024007621587552985 0.013113480700820995 
		endloop
	endfacet
	facet normal -0.28970903784645197 0.94641142705740933 -0.14273781603079444 
		outer loop
			vertex 0.042595607440768457 -0.072875863457227297 0.03712290427146972 
			vertex 0.14411904010290444 -0.044015474432593904 0.022421446090769598 
			vertex 0.10944250379527652 -0.054479034404754531 0.023425197221067177 
		endloop
	endfacet
	facet normal -0.28970903784644964 0.94641142705741266 -0.14273781603077842 
		outer loop
			vertex 0.042595607440768457 -0.072875863457227297 0.03712290427146972 
			vertex 0.10944250379527652 -0.054479034404754531 0.023425197221067177 
			vertex 0.045857299017030118 -0.073665714344092498 0.025265742095565695 
		endloop
	endfacet
	facet normal -0.28970903784645186 0.94641142705740811 -0.14273781603080352 
		outer loop
			vertex 0.14411904010290444 -0.044015474432593904 0.022421446090769598 
			vertex 0.29895416899999999 0. 0. 
			vertex 0.10944250379527652 -0.054479034404754531 0.023425197221067177 
		endloop
	endfacet
	facet normal 0.28970903784644936 -0.94641142705741332 0.14273781603077393 
		outer loop
			vertex 0.29895416899999999 0. 0. 
			vertex 0.10944250379527652 -0.054479034404754531 0.023425197221067177 
			vertex 0.045857299017030118 -0.073665714344092498 0.025265742095565695 
		endloop
	endfacet
	facet normal -0.28970903784644586 0.94641142705742121 -0.14273781603072874 
		outer loop
			vertex 0.14411904010290444 -0.044015474432593904 0.022421446090769598 
			vertex 0.042595607440768457 -0.072875863457227297 0.03712290427146972 
			vertex 0.15910418585131972 -0.039493743375396725 0.021987684275771833 
		endloop
	endfacet
	facet normal 0.28970903784644575 -0.94641142705741976 0.14273781603073829 
		outer loop
			vertex 0.14411904010290444 -0.044015474432593904 0.022421446090769598 
			vertex 0.29895416899999999 0. 0. 
			vertex 0.15910418585131972 -0.039493743375396725 0.021987684275771833 
		endloop
	endfacet
	facet normal -0.016484983445725524 0.14946916384669567 0.98862895687905272 
		outer loop
			vertex -0.26399151920000002 -0.65617962340000002 0.1081684466 
			vertex 0.14411904010290444 -0.044015474432593904 0.022421446090769598 
			vertex 0.10944250379527652 -0.054479034404754531 0.023425197221067177 
		endloop
	endfacet
	facet normal 0.016484983445725181 -0.1494691638466954 -0.98862895687905261 
		outer loop
			vertex 0.19156290272829618 0.027150123040327823 0.012453145050854875 
			vertex 0.14411904010290444 -0.044015474432593904 0.022421446090769598 
			vertex 0.10944250379527652 -0.054479034404754531 0.023425197221067177 
		endloop
	endfacet
	facet normal -0.01648498344572509 0.14946916384669534 0.98862895687905272 
		outer loop
			vertex 0.19156290272829618 0.027150123040327823 0.012453145050854875 
			vertex 0.16480253142255885 0.034720554221239971 0.010862365936402104 
			vertex 0.10944250379527652 -0.054479034404754531 0.023425197221067177 
		endloop
	endfacet
	facet normal -0.016484982609387081 0.14946916330261073 0.98862895697525743 
		outer loop
			vertex 0.14411904010290444 -0.044015474432593904 0.022421446090769598 
			vertex -0.26399151920000002 -0.65617962340000002 0.1081684466 
			vertex 0.15910418585131972 -0.039493743375396725 0.021987684275771833 
		endloop
	endfacet
	facet normal 0.016484982609387092 -0.14946916330261076 -0.98862895697525743 
		outer loop
			vertex 0.14411904010290444 -0.044015474432593904 0.022421446090769598 
			vertex 0.19156290272829618 0.027150123040327823 0.012453145050854875 
			vertex 0.15910418585131972 -0.039493743375396725 0.021987684275771833 
		endloop
	endfacet
	facet normal 0.016484983445725486 -0.14946916384669556 -0.98862895687905283 
		outer loop
			vertex 0.10944250379527652 -0.054479034404754531 0.023425197221067177 
			vertex -0.26399151920000002 -0.65617962340000002 0.1081684466 
			vertex 0.045857299017030118 -0.073665714344092498 0.025265742095565695 
		endloop
	endfacet
	facet normal -0.016484983445725476 0.14946916384669556 0.98862895687905272 
		outer loop
			vertex 0.10944250379527652 -0.054479034404754531 0.023425197221067177 
			vertex 0.16480253142255885 0.034720554221239971 0.010862365936402104 
			vertex 0.045857299017030118 -0.073665714344092498 0.025265742095565695 
		endloop
	endfacet
	facet normal -0.016484982609387348 0.14946916330261076 0.98862895697525754 
		outer loop
			vertex 0.20267118754697794 0.024007621587552985 0.013113480700820995 
			vertex 0.24583770587189974 0.10856210300362377 0.0010496136628351698 
			vertex 0.19720946491329405 0.0255527270283263 0.012788806799843696 
		endloop
	endfacet
	facet normal 0.016484982609387324 -0.1494691633026109 -0.98862895697525766 
		outer loop
			vertex 0.20267118754697794 0.024007621587552985 0.013113480700820995 
			vertex 0.15910418585131972 -0.039493743375396725 0.021987684275771833 
			vertex 0.19720946491329405 0.0255527270283263 0.012788806799843696 
		endloop
	endfacet
	facet normal 0.016484982609387404 -0.1494691633026109 -0.98862895697525743 
		outer loop
			vertex 0.19720946491329405 0.0255527270283263 0.012788806799843696 
			vertex 0.15910418585131972 -0.039493743375396725 0.021987684275771833 
			vertex 0.19156290272829618 0.027150123040327823 0.012453145050854875 
		endloop
	endfacet
	facet normal -0.016484982609387432 0.14946916330261081 0.98862895697525754 
		outer loop
			vertex 0.19720946491329405 0.0255527270283263 0.012788806799843696 
			vertex 0.24583770587189974 0.10856210300362377 0.0010496136628351698 
			vertex 0.19156290272829618 0.027150123040327823 0.012453145050854875 
		endloop
	endfacet
	facet normal 0.25956591505831161 0.95182912455799762 0.16323863936916844 
		outer loop
			vertex 0.19720946491329405 0.0255527270283263 0.012788806799843696 
			vertex 0.20267118754697794 0.024007621587552985 0.013113480700820995 
			vertex 0.29895416899999999 0. 0. 
		endloop
	endfacet
	facet normal -0.25956591505831172 -0.95182912455799695 -0.16323863936917118 
		outer loop
			vertex 0.19720946491329405 0.0255527270283263 0.012788806799843696 
			vertex 0.19156290272829618 0.027150123040327823 0.012453145050854875 
			vertex 0.29895416899999999 0. 0. 
		endloop
	endfacet
	facet normal -0.25956591505831172 -0.95182912455799784 -0.16323863936916624 
		outer loop
			vertex 0.19720946491329405 0.0255527270283263 0.012788806799843696 
			vertex 0.20267118754697794 0.024007621587552985 0.013113480700820995 
			vertex 0.10647611732261937 0.048661338738496596 0.022319851323663271 
		endloop
	endfacet
	facet normal 0.25956591505831195 0.95182912455799717 0.16323863936916952 
		outer loop
			vertex 0.19720946491329405 0.0255527270283263 0.012788806799843696 
			vertex 0.19156290272829618 0.027150123040327823 0.012453145050854875 
			vertex 0.10647611732261937 0.048661338738496596 0.022319851323663271 
		endloop
	endfacet
	facet normal 0.25956591505831533 0.9518291245579924 0.16323863936919208 
		outer loop
			vertex 0.032940005754727844 0.0037207220940972258 0.40129419297307539 
			vertex 0.20267118754697794 0.024007621587552985 0.013113480700820995 
			vertex 0.027845611857191588 0.0055615439522697895 0.3986611347356932 
		endloop
	endfacet
	facet normal -0.25956591505831539 -0.9518291245579924 -0.16323863936919211 
		outer loop
			vertex 0.032940005754727844 0.0037207220940972258 0.40129419297307539 
			vertex -0.18748872280000001 -0.017158666400000001 0.87354386989999999 
			vertex 0.027845611857191588 0.0055615439522697895 0.3986611347356932 
		endloop
	endfacet
	facet normal -0.25956591505831306 -0.95182912455799318 -0.16323863936919109 
		outer loop
			vertex 0.027845611857191588 0.0055615439522697895 0.3986611347356932 
			vertex -0.18748872280000001 -0.017158666400000001 0.87354386989999999 
			vertex -0.0066973025674182396 0.01804337264411035 0.38080748870865677 
		endloop
	endfacet
	facet normal 0.25956591505831306 0.95182912455799318 0.16323863936919103 
		outer loop
			vertex 0.027845611857191588 0.0055615439522697895 0.3986611347356932 
			vertex 0.20267118754697794 0.024007621587552985 0.013113480700820995 
			vertex -0.0066973025674182396 0.01804337264411035 0.38080748870865677 
		endloop
	endfacet
	facet normal 0.49730427135725469 0.15537508092760405 -0.85354967395961812 
		outer loop
			vertex 0.027845611857191588 0.0055615439522697895 0.3986611347356932 
			vertex -0.0066973025674182396 0.01804337264411035 0.38080748870865677 
			vertex 0.20009138409999999 0.12742249520000001 0.52119965430000004 
		endloop
	endfacet
	facet normal -0.49730427135725563 -0.15537508092760272 0.853549673959618 
		outer loop
			vertex 0.027845611857191588 0.0055615439522697895 0.3986611347356932 
			vertex 0.032940005754727844 0.0037207220940972258 0.40129419297307539 
			vertex 0.20009138409999999 0.12742249520000001 0.52119965430000004 
		endloop
	endfacet
	facet normal 0.49730427135725558 0.15537508092760222 -0.85354967395961823 
		outer loop
			vertex -0.042662729767787774 -0.05222971354319482 0.34706083294849077 
			vertex -0.45651920275465913 -0.21988610764720951 0.075416165249712439 
			vertex -0.033238141372634089 -0.026512411576774059 0.35723331172021477 
		endloop
	endfacet
	facet normal -0.49730427135725552 -0.15537508092760213 0.853549673959618 
		outer loop
			vertex -0.042662729767787774 -0.05222971354319482 0.34706083294849077 
			vertex 0.032940005754727844 0.0037207220940972258 0.40129419297307539 
			vertex -0.033238141372634089 -0.026512411576774059 0.35723331172021477 
		endloop
	endfacet
	facet normal -0.49730427135725552 -0.15537508092760213 0.85354967395961812 
		outer loop
			vertex -0.033238141372634089 -0.026512411576774059 0.35723331172021477 
			vertex 0.032940005754727844 0.0037207220940972258 0.40129419297307539 
			vertex 0.027845611857191588 0.0055615439522697895 0.3986611347356932 
		endloop
	endfacet
	facet normal -0.86616707884697131 0.42281035967427799 -0.26643196368643945 
		outer loop
			vertex -0.033238141372634089 -0.026512411576774059 0.35723331172021477 
			vertex -0.042662729767787774 -0.05222971354319482 0.34706083294849077 
			vertex -0.18748872280000001 -0.017158666400000001 0.87354386989999999 
		endloop
	endfacet
	facet normal 0.86616707884697142 -0.42281035967427799 0.2664319636864394 
		outer loop
			vertex -0.033238141372634089 -0.026512411576774059 0.35723331172021477 
			vertex -0.042662729767787774 -0.05222971354319482 0.34706083294849077 
			vertex 0.031882518231289875 0.031959507752715138 0.23831800658640867 
		endloop
	endfacet
	facet normal 0.49730427135725774 0.15537508092759408 -0.85354967395961834 
		outer loop
			vertex -0.015715623897080366 0.021302076890692904 0.37614633259430319 
			vertex -0.0066973025674182396 0.01804337264411035 0.38080748870865677 
			vertex -0.019365435151958651 0.01134267132021613 0.37220688972907001 
		endloop
	endfacet
	facet normal -0.49730427135726019 -0.15537508092759278 0.85354967395961712 
		outer loop
			vertex -0.015715623897080366 0.021302076890692904 0.37614633259430319 
			vertex -0.45651920275465913 -0.21988610764720951 0.075416165249712439 
			vertex -0.019365435151958651 0.01134267132021613 0.37220688972907001 
		endloop
	endfacet
	facet normal 0.49730427135725419 0.15537508092760163 -0.853549673959619 
		outer loop
			vertex -0.019365435151958651 0.01134267132021613 0.37220688972907001 
			vertex -0.0066973025674182396 0.01804337264411035 0.38080748870865677 
			vertex 0.027845611857191588 0.0055615439522697895 0.3986611347356932 
		endloop
	endfacet
	facet normal 0.86616707884697142 -0.42281035967427771 0.26643196368643945 
		outer loop
			vertex -0.019365435151958651 0.01134267132021613 0.37220688972907001 
			vertex -0.015715623897080425 0.021302076890692918 0.37614633259430325 
			vertex -0.18748872280000001 -0.017158666400000001 0.87354386989999999 
		endloop
	endfacet
	facet normal -0.86616707884697131 0.42281035967427771 -0.26643196368643945 
		outer loop
			vertex -0.019365435151958651 0.01134267132021613 0.37220688972907001 
			vertex -0.015715623897080425 0.021302076890692918 0.37614633259430325 
			vertex 0.031882518231289875 0.031959507752715138 0.23831800658640867 
		endloop
	endfacet
	facet normal -0.49730427135725103 -0.15537508092761201 0.85354967395961878 
		outer loop
			vertex -0.033238141372634089 -0.026512411576774059 0.35723331172021477 
			vertex 0.027845611857191588 0.0055615439522697895 0.3986611347356932 
			vertex -0.031628755049915795 -0.022120806096872461 0.35897041126418783 
		endloop
	endfacet
	facet normal 0.49730427135725158 0.15537508092761171 -0.85354967395961856 
		outer loop
			vertex -0.033238141372634089 -0.026512411576774059 0.35723331172021477 
			vertex -0.45651920275465913 -0.21988610764720951 0.075416165249712439 
			vertex -0.031628755049915795 -0.022120806096872461 0.35897041126418783 
		endloop
	endfacet
	facet normal 0.49730427135725475 0.15537508092760416 -0.85354967395961812 
		outer loop
			vertex -0.031628755049915795 -0.022120806096872461 0.35897041126418783 
			vertex -0.45651920275465913 -0.21988610764720951 0.075416165249712439 
			vertex -0.019365435151958651 0.01134267132021613 0.37220688972907001 
		endloop
	endfacet
	facet normal -0.49730427135725436 -0.15537508092760444 0.85354967395961834 
		outer loop
			vertex -0.031628755049915795 -0.022120806096872461 0.35897041126418783 
			vertex 0.027845611857191588 0.0055615439522697895 0.3986611347356932 
			vertex -0.019365435151958651 0.01134267132021613 0.37220688972907001 
		endloop
	endfacet
	facet normal -0.86616707884697064 0.42281035967427955 -0.26643196368643923 
		outer loop
			vertex -0.031628755049915795 -0.022120806096872461 0.35897041126418783 
			vertex -0.033238141372634089 -0.026512411576774059 0.35723331172021477 
			vertex -0.18748872280000001 -0.017158666400000001 0.87354386989999999 
		endloop
	endfacet
	facet normal 0.86616707884697131 -0.42281035967427788 0.2664319636864394 
		outer loop
			vertex -0.031628755049915795 -0.022120806096872461 0.35897041126418783 
			vertex -0.019365435151958651 0.01134267132021613 0.37220688972907001 
			vertex -0.18748872280000001 -0.017158666400000001 0.87354386989999999 
		endloop
	endfacet
	facet normal 0.86616707884697086 -0.42281035967427932 0.26643196368643862 
		outer loop
			vertex -0.031628755049915795 -0.022120806096872461 0.35897041126418783 
			vertex -0.033238141372634089 -0.026512411576774059 0.35723331172021477 
			vertex 0.031882518231289875 0.031959507752715138 0.23831800658640867 
		endloop
	endfacet
	facet normal -0.86616707884697142 0.42281035967427799 -0.26643196368643945 
		outer loop
			vertex -0.031628755049915795 -0.022120806096872461 0.35897041126418783 
			vertex -0.019365435151958651 0.01134267132021613 0.37220688972907001 
			vertex 0.031882518231289875 0.031959507752715138 0.23831800658640867 
		endloop
	endfacet
endsolid icosahedron_12_2_fixed