solid icosaeder_fixed
	facet normal 0.79465447232645126 0.49112347301314346 0.35682208993709646 
		outer loop
			vertex 0.95105651599999996 0. 0. 
			vertex 0.42532540400000002 0.85065080849999997 0. 
			vertex 0.42532540400000002 0.262865556 0.80901699400000004 
		endloop
	endfacet
	facet normal -0.79465447232645126 -0.49112347301314346 0.35682208993709646 
		outer loop
			vertex 0.95105651599999996 0. 0. 
			vertex 0.42532540400000002 0.85065080849999997 0. 
			vertex 0.42532540400000002 0.262865556 -0.80901699400000004 
		endloop
	endfacet
	facet normal -0.79465447225651109 0.18759247398457279 0.57735026927080701 
		outer loop
			vertex 0.95105651599999996 0. 0. 
			vertex 0.42532540400000002 0.262865556 -0.80901699400000004 
			vertex 0.42532540400000002 -0.68819096040000005 -0.49999999979999998 
		endloop
	endfacet
	facet normal -0.79465447242809117 0.60706199802823446 0. 
		outer loop
			vertex 0.95105651599999996 0. 0. 
			vertex 0.42532540400000002 -0.68819096040000005 -0.49999999979999998 
			vertex 0.42532540400000002 -0.68819096040000005 0.49999999979999998 
		endloop
	endfacet
	facet normal 0.79465447225651109 -0.18759247398457279 0.57735026927080701 
		outer loop
			vertex 0.95105651599999996 0. 0. 
			vertex 0.42532540400000002 0.262865556 0.80901699400000004 
			vertex 0.42532540400000002 -0.68819096040000005 0.49999999979999998 
		endloop
	endfacet
	facet normal -0.18759247426013101 -0.79465447204054496 -0.57735026947852452 
		outer loop
			vertex 0.42532540400000002 0.85065080849999997 0. 
			vertex 0.42532540400000002 0.262865556 0.80901699400000004 
			vertex -0.42532540400000002 0.68819096040000005 0.49999999979999998 
		endloop
	endfacet
	facet normal 0.18759247426013101 0.79465447204054496 -0.57735026947852452 
		outer loop
			vertex 0.42532540400000002 0.85065080849999997 0. 
			vertex 0.42532540400000002 0.262865556 -0.80901699400000004 
			vertex -0.42532540400000002 0.68819096040000005 -0.49999999979999998 
		endloop
	endfacet
	facet normal 0.18759247400823975 -0.30353099892217933 -0.93417235903700979 
		outer loop
			vertex 0.42532540400000002 0.262865556 -0.80901699400000004 
			vertex 0.42532540400000002 -0.68819096040000005 -0.49999999979999998 
			vertex -0.42532540400000002 -0.262865556 -0.80901699400000004 
		endloop
	endfacet
	facet normal 0.18759247414165262 -0.98224694636604171 0. 
		outer loop
			vertex 0.42532540400000002 -0.68819096040000005 -0.49999999979999998 
			vertex 0.42532540400000002 -0.68819096040000005 0.49999999979999998 
			vertex -0.42532540400000002 -0.85065080849999997 0. 
		endloop
	endfacet
	facet normal -0.18759247400823975 0.30353099892217933 -0.93417235903700979 
		outer loop
			vertex 0.42532540400000002 0.262865556 0.80901699400000004 
			vertex 0.42532540400000002 -0.68819096040000005 0.49999999979999998 
			vertex -0.42532540400000002 -0.262865556 0.80901699400000004 
		endloop
	endfacet
	facet normal 0.18759247414165262 -0.98224694636604171 0. 
		outer loop
			vertex 0.42532540400000002 0.85065080849999997 0. 
			vertex -0.42532540400000002 0.68819096040000005 0.49999999979999998 
			vertex -0.42532540400000002 0.68819096040000005 -0.49999999979999998 
		endloop
	endfacet
	facet normal 0.18759247400823972 -0.30353099892217927 0.93417235903700979 
		outer loop
			vertex 0.42532540400000002 0.262865556 -0.80901699400000004 
			vertex -0.42532540400000002 0.68819096040000005 -0.49999999979999998 
			vertex -0.42532540400000002 -0.262865556 -0.80901699400000004 
		endloop
	endfacet
	facet normal 0.18759247426013098 0.79465447204054496 0.57735026947852452 
		outer loop
			vertex 0.42532540400000002 -0.68819096040000005 -0.49999999979999998 
			vertex -0.42532540400000002 -0.262865556 -0.80901699400000004 
			vertex -0.42532540400000002 -0.85065080849999997 0. 
		endloop
	endfacet
	facet normal 0.18759247426013098 0.79465447204054496 -0.57735026947852452 
		outer loop
			vertex 0.42532540400000002 -0.68819096040000005 0.49999999979999998 
			vertex -0.42532540400000002 -0.85065080849999997 0. 
			vertex -0.42532540400000002 -0.262865556 0.80901699400000004 
		endloop
	endfacet
	facet normal -0.18759247400823972 0.30353099892217927 0.93417235903700979 
		outer loop
			vertex 0.42532540400000002 0.262865556 0.80901699400000004 
			vertex -0.42532540400000002 0.68819096040000005 0.49999999979999998 
			vertex -0.42532540400000002 -0.262865556 0.80901699400000004 
		endloop
	endfacet
	facet normal -0.79465447242809117 0.60706199802823446 0. 
		outer loop
			vertex -0.42532540400000002 0.68819096040000005 0.49999999979999998 
			vertex -0.42532540400000002 0.68819096040000005 -0.49999999979999998 
			vertex -0.95105651599999996 0. 0. 
		endloop
	endfacet
	facet normal -0.79465447225651098 0.18759247398457279 -0.57735026927080701 
		outer loop
			vertex -0.42532540400000002 0.68819096040000005 -0.49999999979999998 
			vertex -0.42532540400000002 -0.262865556 -0.80901699400000004 
			vertex -0.95105651599999996 0. 0. 
		endloop
	endfacet
	facet normal -0.79465447232645137 -0.49112347301314346 -0.35682208993709652 
		outer loop
			vertex -0.42532540400000002 -0.262865556 -0.80901699400000004 
			vertex -0.42532540400000002 -0.85065080849999997 0. 
			vertex -0.95105651599999996 0. 0. 
		endloop
	endfacet
	facet normal -0.79465447232645126 -0.49112347301314346 0.35682208993709652 
		outer loop
			vertex -0.42532540400000002 -0.85065080849999997 0. 
			vertex -0.42532540400000002 -0.262865556 0.80901699400000004 
			vertex -0.95105651599999996 0. 0. 
		endloop
	endfacet
	facet normal 0.79465447225651098 -0.18759247398457279 -0.57735026927080701 
		outer loop
			vertex -0.42532540400000002 0.68819096040000005 0.49999999979999998 
			vertex -0.42532540400000002 -0.262865556 0.80901699400000004 
			vertex -0.95105651599999996 0. 0. 
		endloop
	endfacet
endsolid icosaeder_fixed