\relax 
\providecommand\hyper@newdestlabel[2]{}
\providecommand\babel@aux[2]{}
\@nameuse{bbl@beforestart}
\catcode `"\active 
\providecommand\HyperFirstAtBeginDocument{\AtBeginDocument}
\HyperFirstAtBeginDocument{\ifx\hyper@anchor\@undefined
\global\let\oldcontentsline\contentsline
\gdef\contentsline#1#2#3#4{\oldcontentsline{#1}{#2}{#3}}
\global\let\oldnewlabel\newlabel
\gdef\newlabel#1#2{\newlabelxx{#1}#2}
\gdef\newlabelxx#1#2#3#4#5#6{\oldnewlabel{#1}{{#2}{#3}}}
\AtEndDocument{\ifx\hyper@anchor\@undefined
\let\contentsline\oldcontentsline
\let\newlabel\oldnewlabel
\fi}
\fi}
\global\let\hyper@last\relax 
\gdef\HyperFirstAtBeginDocument#1{#1}
\providecommand\HyField@AuxAddToFields[1]{}
\providecommand\HyField@AuxAddToCoFields[2]{}
\citation{Brakhage}
\babel@aux{ngerman}{}
\@writefile{toc}{\contentsline {section}{\numberline {1}Goal}{1}{section.1}\protected@file@percent }
\@writefile{lof}{\contentsline {figure}{\numberline {1}{\ignorespaces A tetrahedron\relax }}{1}{figure.caption.1}\protected@file@percent }
\providecommand*\caption@xref[2]{\@setref\relax\@undefined{#1}}
\newlabel{simpl:tetra}{{1}{1}{A tetrahedron\relax }{figure.caption.1}{}}
\@writefile{toc}{\contentsline {section}{\numberline {2}Background}{1}{section.2}\protected@file@percent }
\citation{Icosahedra:online}
\citation{Writinga88:online}
\@writefile{lof}{\contentsline {figure}{\numberline {2}{\ignorespaces Intersection of Triangles\relax }}{2}{figure.caption.2}\protected@file@percent }
\newlabel{self-intersection}{{2}{2}{Intersection of Triangles\relax }{figure.caption.2}{}}
\@writefile{tdo}{\contentsline {todo}{diamond-icosader would be good example here}{3}{section*.3}\protected@file@percent }
\pgfsyspdfmark {pgfid4}{5873801}{45572165}
\pgfsyspdfmark {pgfid7}{35561849}{45587612}
\pgfsyspdfmark {pgfid8}{37183864}{45340438}
\@writefile{toc}{\contentsline {section}{\numberline {3}Method}{3}{section.3}\protected@file@percent }
\@writefile{toc}{\contentsline {subsection}{\numberline {3.1}Detection of Intersections}{3}{subsection.3.1}\protected@file@percent }
\@writefile{tdo}{\contentsline {todo}{graphic}{3}{section*.4}\protected@file@percent }
\pgfsyspdfmark {pgfid9}{10209433}{31302480}
\pgfsyspdfmark {pgfid12}{35561849}{31317927}
\pgfsyspdfmark {pgfid13}{37183864}{31070753}
\@writefile{toc}{\contentsline {subsubsection}{\numberline {3.1.1}Calculation of edge-plane intersection points}{3}{subsubsection.3.1.1}\protected@file@percent }
\newlabel{eq:normal}{{1}{3}{Calculation of edge-plane intersection points}{equation.3.1}{}}
\newlabel{eq:intersection}{{2}{3}{Calculation of edge-plane intersection points}{equation.3.2}{}}
\bibdata{sources}
\bibcite{Brakhage}{1}
\bibcite{Icosahedra:online}{2}
\bibcite{Writinga88:online}{3}
\bibstyle{ieeetr}
\@writefile{toc}{\contentsline {subsubsection}{\numberline {3.1.2}Checking if a vector lies inside a face}{4}{subsubsection.3.1.2}\protected@file@percent }
\@writefile{tdo}{\contentsline {todo}{graphic}{4}{section*.5}\protected@file@percent }
\pgfsyspdfmark {pgfid14}{15292539}{41543550}
\pgfsyspdfmark {pgfid17}{35561849}{41558997}
\pgfsyspdfmark {pgfid18}{37183864}{41311823}
\@writefile{toc}{\contentsline {subsubsection}{\numberline {3.1.3}Using intersection points to infer self-intersection}{4}{subsubsection.3.1.3}\protected@file@percent }
\@writefile{tdo}{\contentsline {todo}{grapic}{4}{section*.6}\protected@file@percent }
\pgfsyspdfmark {pgfid19}{14783875}{31608688}
\pgfsyspdfmark {pgfid22}{35561849}{31624135}
\pgfsyspdfmark {pgfid23}{37183864}{31376961}
\@writefile{tdo}{\contentsline {todo}{graphic}{4}{section*.7}\protected@file@percent }
\pgfsyspdfmark {pgfid24}{30581037}{26726254}
\pgfsyspdfmark {pgfid27}{35561849}{26741701}
\pgfsyspdfmark {pgfid28}{37183864}{26494527}
\@writefile{toc}{\contentsline {subsubsection}{\numberline {3.1.4}Perpendicular edges to faces}{4}{subsubsection.3.1.4}\protected@file@percent }
\newlabel{sec:perp}{{3.1.4}{4}{Perpendicular edges to faces}{subsubsection.3.1.4}{}}
\@writefile{toc}{\contentsline {subsection}{\numberline {3.2}Rectification of Intersections}{4}{subsection.3.2}\protected@file@percent }
\newlabel{sec:rectif}{{3.2}{4}{Rectification of Intersections}{subsection.3.2}{}}
\gdef \@abspage@last{4}
