solid base_models/icosahedron_12_1_unchanged
	facet normal 0.067894794790008414 0.15883638439863526 0.98496766435837446 
		outer loop
			vertex 0.78465120850000003 0. 0. 
			vertex -0.1348663832 0.39304884979999999 0. 
			vertex -0.0103810151 -0.58783053510000005 0.1495962069 
		endloop
	endfacet
	facet normal -0.31806993893601104 -0.74410828168414334 0.58748138615135181 
		outer loop
			vertex 0.78465120850000003 0. 0. 
			vertex -0.1348663832 0.39304884979999999 0. 
			vertex 0.1249194538 -0.27130203860000002 -0.70082038749999997 
		endloop
	endfacet
	facet normal -0.16020827282189207 0.96189744583399983 -0.22155498869908952 
		outer loop
			vertex 0.78465120850000003 0. 0. 
			vertex 0.1249194538 -0.27130203860000002 -0.70082038749999997 
			vertex -0.1810727432 -0.1063017322 0.23680623009999999 
		endloop
	endfacet
	facet normal -0.042741111558833964 0.96496665756839528 0.25886781793802544 
		outer loop
			vertex 0.78465120850000003 0. 0. 
			vertex -0.1810727432 -0.1063017322 0.23680623009999999 
			vertex 0.52351616990000005 -0.26088740259999998 0.92937949949999998 
		endloop
	endfacet
	facet normal -0.58576790090807784 0.8080846544418443 0.062250763219013128 
		outer loop
			vertex 0.78465120850000003 0. 0. 
			vertex -0.0103810151 -0.58783053510000005 0.1495962069 
			vertex 0.52351616990000005 -0.26088740259999998 0.92937949949999998 
		endloop
	endfacet
	facet normal -0.12390887301311909 -0.16495678724857812 -0.97848650963068784 
		outer loop
			vertex -0.1348663832 0.39304884979999999 0. 
			vertex -0.0103810151 -0.58783053510000005 0.1495962069 
			vertex -0.92518600660000005 -0.1868261138 0.1978381132 
		endloop
	endfacet
	facet normal 0.3692527413788263 0.73892616368693964 -0.56359607663922207 
		outer loop
			vertex -0.1348663832 0.39304884979999999 0. 
			vertex 0.1249194538 -0.27130203860000002 -0.70082038749999997 
			vertex -0.77771067650000003 0.1581848444 -0.72910226509999998 
		endloop
	endfacet
	facet normal -0.95120621284928886 -0.011924802371583214 -0.30832537963215439 
		outer loop
			vertex 0.1249194538 -0.27130203860000002 -0.70082038749999997 
			vertex -0.1810727432 -0.1063017322 0.23680623009999999 
			vertex 0.0062983025000000002 0.66529092150000002 -0.37108921109999998 
		endloop
	endfacet
	facet normal -0.19312702875385607 0.89736933745610414 0.39677477611146106 
		outer loop
			vertex -0.1810727432 -0.1063017322 0.23680623009999999 
			vertex 0.52351616990000005 -0.26088740259999998 0.92937949949999998 
			vertex 0.76256958939999997 0.1743490831 0.0613802694 
		endloop
	endfacet
	facet normal -0.71884288427152243 -0.31008482875992655 0.62218349922279825 
		outer loop
			vertex -0.0103810151 -0.58783053510000005 0.1495962069 
			vertex 0.52351616990000005 -0.26088740259999998 0.92937949949999998 
			vertex -0.12900216649999999 0.34876242530000001 0.47932738330000002 
		endloop
	endfacet
	facet normal 0.54184692429745795 -0.81221974204230474 -0.21610414449083784 
		outer loop
			vertex -0.1348663832 0.39304884979999999 0. 
			vertex -0.92518600660000005 -0.1868261138 0.1978381132 
			vertex -0.77771067650000003 0.1581848444 -0.72910226509999998 
		endloop
	endfacet
	facet normal 0.19410957463705453 0.34754191099972964 -0.91735276373534602 
		outer loop
			vertex 0.1249194538 -0.27130203860000002 -0.70082038749999997 
			vertex -0.77771067650000003 0.1581848444 -0.72910226509999998 
			vertex 0.0062983025000000002 0.66529092150000002 -0.37108921109999998 
		endloop
	endfacet
	facet normal 0.040702003088907306 -0.62442293755907197 -0.7800252188196547 
		outer loop
			vertex -0.1810727432 -0.1063017322 0.23680623009999999 
			vertex 0.0062983025000000002 0.66529092150000002 -0.37108921109999998 
			vertex 0.76256958939999997 0.1743490831 0.0613802694 
		endloop
	endfacet
	facet normal 0.38485762487280495 0.77823572882338976 0.49621946652664733 
		outer loop
			vertex 0.52351616990000005 -0.26088740259999998 0.92937949949999998 
			vertex 0.76256958939999997 0.1743490831 0.0613802694 
			vertex -0.12900216649999999 0.34876242530000001 0.47932738330000002 
		endloop
	endfacet
	facet normal 0.10050586204668496 0.34169576819971198 -0.93442098311663646 
		outer loop
			vertex -0.0103810151 -0.58783053510000005 0.1495962069 
			vertex -0.92518600660000005 -0.1868261138 0.1978381132 
			vertex -0.12900216649999999 0.34876242530000001 0.47932738330000002 
		endloop
	endfacet
	facet normal -0.32921849333245234 -0.86662327582547249 -0.37493903697192865 
		outer loop
			vertex -0.92518600660000005 -0.1868261138 0.1978381132 
			vertex -0.77771067650000003 0.1581848444 -0.72910226509999998 
			vertex -0.0437357331 -0.32648830159999997 -0.25331583880000003 
		endloop
	endfacet
	facet normal 0.47896227963884469 -0.12730367821155955 -0.86855564484779479 
		outer loop
			vertex -0.77771067650000003 0.1581848444 -0.72910226509999998 
			vertex 0.0062983025000000002 0.66529092150000002 -0.37108921109999998 
			vertex -0.0437357331 -0.32648830159999997 -0.25331583880000003 
		endloop
	endfacet
	facet normal 0.428502868437308 -0.12783321688651297 -0.89445176527381554 
		outer loop
			vertex 0.0062983025000000002 0.66529092150000002 -0.37108921109999998 
			vertex 0.76256958939999997 0.1743490831 0.0613802694 
			vertex -0.0437357331 -0.32648830159999997 -0.25331583880000003 
		endloop
	endfacet
	facet normal 0.178327724371766 -0.7131051141280591 0.67799728533733472 
		outer loop
			vertex 0.76256958939999997 0.1743490831 0.0613802694 
			vertex -0.12900216649999999 0.34876242530000001 0.47932738330000002 
			vertex -0.0437357331 -0.32648830159999997 -0.25331583880000003 
		endloop
	endfacet
	facet normal -0.2336184111128238 0.70127305460063594 -0.67352694146575409 
		outer loop
			vertex -0.92518600660000005 -0.1868261138 0.1978381132 
			vertex -0.12900216649999999 0.34876242530000001 0.47932738330000002 
			vertex -0.0437357331 -0.32648830159999997 -0.25331583880000003 
		endloop
	endfacet
endsolid base_models/icosahedron_12_1_unchanged