solid base_models/icosahedron_13_3_unchanged
	facet normal 0.45107735464894305 0.44363068057402683 0.77441657999834779 
		outer loop
			vertex 0.47436651200000002 0. 0. 
			vertex -0.22683071790000001 0.71296735190000005 0. 
			vertex -0.35439394660000001 -0.1137843655 0.5479135155 
		endloop
	endfacet
	facet normal -0.63553868889885279 -0.62504680889323261 0.45321855831939828 
		outer loop
			vertex 0.47436651200000002 0. 0. 
			vertex -0.22683071790000001 0.71296735190000005 0. 
			vertex -0.1560709223 0.081264615200000001 -0.77197454870000004 
		endloop
	endfacet
	facet normal -0.6949451559202523 -0.50216231543736745 0.51466905795623485 
		outer loop
			vertex 0.47436651200000002 0. 0. 
			vertex -0.1560709223 0.081264615200000001 -0.77197454870000004 
			vertex 0.45864721689999999 -0.70496933100000003 -0.70906356989999997 
		endloop
	endfacet
	facet normal 0.16035539467704923 0.69819458766701759 -0.69771804129637571 
		outer loop
			vertex 0.47436651200000002 0. 0. 
			vertex 0.45864721689999999 -0.70496933100000003 -0.70906356989999997 
			vertex -0.38820319650000001 -0.24451744780000001 -0.44292743829999998 
		endloop
	endfacet
	facet normal 0.21289517739099598 -0.96959551603471517 0.12066556563092312 
		outer loop
			vertex 0.47436651200000002 0. 0. 
			vertex -0.35439394660000001 -0.1137843655 0.5479135155 
			vertex -0.38820319650000001 -0.24451744780000001 -0.44292743829999998 
		endloop
	endfacet
	facet normal -0.68865845980657425 0.47138653812735387 0.55094850703958342 
		outer loop
			vertex -0.22683071790000001 0.71296735190000005 0. 
			vertex -0.35439394660000001 -0.1137843655 0.5479135155 
			vertex 0.32753640499999997 0.56549983660000003 0.81910342759999999 
		endloop
	endfacet
	facet normal -0.73713459772287804 -0.55451654200995237 0.38619164863737732 
		outer loop
			vertex -0.22683071790000001 0.71296735190000005 0. 
			vertex -0.1560709223 0.081264615200000001 -0.77197454870000004 
			vertex 0.3905450795 -0.072029295500000007 0.0512580573 
		endloop
	endfacet
	facet normal -0.50074910070172618 -0.45064552519835099 -0.73903244094228693 
		outer loop
			vertex -0.1560709223 0.081264615200000001 -0.77197454870000004 
			vertex 0.45864721689999999 -0.70496933100000003 -0.70906356989999997 
			vertex -0.3764702828 -0.67800272920000004 -0.1596533735 
		endloop
	endfacet
	facet normal 0.27721937232131877 0.80923370214336354 -0.51796740720350321 
		outer loop
			vertex 0.45864721689999999 -0.70496933100000003 -0.70906356989999997 
			vertex -0.38820319650000001 -0.24451744780000001 -0.44292743829999998 
			vertex 0.4282809722 -0.158762917 0.1280364507 
		endloop
	endfacet
	facet normal 0.96113094452750991 -0.27606907521896884 0.0036294874844854511 
		outer loop
			vertex -0.35439394660000001 -0.1137843655 0.5479135155 
			vertex -0.38820319650000001 -0.24451744780000001 -0.44292743829999998 
			vertex -0.133994586 0.64548297880000005 -0.064407659699999995 
		endloop
	endfacet
	facet normal 0.73373661253261113 0.55111414502740474 -0.39737108926025516 
		outer loop
			vertex -0.22683071790000001 0.71296735190000005 0. 
			vertex 0.32753640499999997 0.56549983660000003 0.81910342759999999 
			vertex 0.3905450795 -0.072029295500000007 0.0512580573 
		endloop
	endfacet
	facet normal 0.61336367813479964 -0.59599232337557662 -0.51824525933416132 
		outer loop
			vertex -0.1560709223 0.081264615200000001 -0.77197454870000004 
			vertex 0.3905450795 -0.072029295500000007 0.0512580573 
			vertex -0.3764702828 -0.67800272920000004 -0.1596533735 
		endloop
	endfacet
	facet normal -0.32044975710495938 0.78795997069777812 -0.52576709458592896 
		outer loop
			vertex 0.45864721689999999 -0.70496933100000003 -0.70906356989999997 
			vertex -0.3764702828 -0.67800272920000004 -0.1596533735 
			vertex 0.4282809722 -0.158762917 0.1280364507 
		endloop
	endfacet
	facet normal -0.54928910488008231 -0.18926866256894326 0.8139157527836659 
		outer loop
			vertex -0.38820319650000001 -0.24451744780000001 -0.44292743829999998 
			vertex 0.4282809722 -0.158762917 0.1280364507 
			vertex -0.133994586 0.64548297880000005 -0.064407659699999995 
		endloop
	endfacet
	facet normal -0.71804561686460489 0.55117375937769797 0.42499174000794959 
		outer loop
			vertex -0.35439394660000001 -0.1137843655 0.5479135155 
			vertex 0.32753640499999997 0.56549983660000003 0.81910342759999999 
			vertex -0.133994586 0.64548297880000005 -0.064407659699999995 
		endloop
	endfacet
	facet normal -0.37074909836173381 0.69936391983724733 -0.61109345741370991 
		outer loop
			vertex 0.32753640499999997 0.56549983660000003 0.81910342759999999 
			vertex 0.3905450795 -0.072029295500000007 0.0512580573 
			vertex -0.44341253349999998 -0.033148696499999998 0.60171513899999995 
		endloop
	endfacet
	facet normal -0.37569568246276053 0.69062665905969933 -0.6179705267849579 
		outer loop
			vertex 0.3905450795 -0.072029295500000007 0.0512580573 
			vertex -0.3764702828 -0.67800272920000004 -0.1596533735 
			vertex -0.44341253349999998 -0.033148696499999998 0.60171513899999995 
		endloop
	endfacet
	facet normal 0.24227337813845903 -0.72973710410930115 0.63936481693282954 
		outer loop
			vertex -0.3764702828 -0.67800272920000004 -0.1596533735 
			vertex 0.4282809722 -0.158762917 0.1280364507 
			vertex -0.44341253349999998 -0.033148696499999998 0.60171513899999995 
		endloop
	endfacet
	facet normal 0.46780135567141606 0.50124422245286859 0.72795337837639329 
		outer loop
			vertex 0.4282809722 -0.158762917 0.1280364507 
			vertex -0.133994586 0.64548297880000005 -0.064407659699999995 
			vertex -0.44341253349999998 -0.033148696499999998 0.60171513899999995 
		endloop
	endfacet
	facet normal -0.63081292120391119 0.67066220010249944 0.39024001818863102 
		outer loop
			vertex 0.32753640499999997 0.56549983660000003 0.81910342759999999 
			vertex -0.133994586 0.64548297880000005 -0.064407659699999995 
			vertex -0.44341253349999998 -0.033148696499999998 0.60171513899999995 
		endloop
	endfacet
endsolid base_models/icosahedron_13_3_unchanged