solid base_models/icosahedron_13_5_unchanged
	facet normal 0.46601799841100749 0.50359367898489305 0.72747551961798596 
		outer loop
			vertex 0.66296886239999997 0. 0. 
			vertex -0.070989730400000006 0.67919421670000002 0. 
			vertex -0.1319111315 -0.12280581860000001 0.59420916040000005 
		endloop
	endfacet
	facet normal -0.55268097753094514 -0.59724441486979585 0.58124250187187287 
		outer loop
			vertex 0.66296886239999997 0. 0. 
			vertex -0.070989730400000006 0.67919421670000002 0. 
			vertex -0.045896951499999998 -0.0298561954 -0.70471119299999996 
		endloop
	endfacet
	facet normal -0.52014537456540844 -0.6526850219286775 0.55086391374655574 
		outer loop
			vertex 0.66296886239999997 0. 0. 
			vertex -0.045896951499999998 -0.0298561954 -0.70471119299999996 
			vertex 0.72111144599999999 -0.67054471760000001 -0.73958719679999996 
		endloop
	endfacet
	facet normal -0.081618771604056325 0.73516748161111189 -0.67295404754219301 
		outer loop
			vertex 0.66296886239999997 0. 0. 
			vertex 0.72111144599999999 -0.67054471760000001 -0.73958719679999996 
			vertex -0.16962588440000001 -0.42143451269999999 -0.35941471749999998 
		endloop
	endfacet
	facet normal 0.34012681989605936 -0.90115946997668561 0.26874775544873447 
		outer loop
			vertex 0.66296886239999997 0. 0. 
			vertex -0.1319111315 -0.12280581860000001 0.59420916040000005 
			vertex -0.16962588440000001 -0.42143451269999999 -0.35941471749999998 
		endloop
	endfacet
	facet normal -0.64215807217906573 -0.42426295632127253 -0.63846217916866466 
		outer loop
			vertex -0.070989730400000006 0.67919421670000002 0. 
			vertex -0.1319111315 -0.12280581860000001 0.59420916040000005 
			vertex -0.76322168670000001 0.64233382260000005 0.7207331199 
		endloop
	endfacet
	facet normal -0.65649709821883495 0.51993652540565372 -0.5465140159038423 
		outer loop
			vertex -0.070989730400000006 0.67919421670000002 0. 
			vertex -0.045896951499999998 -0.0298561954 -0.70471119299999996 
			vertex -0.71134948610000004 -0.087866008499999995 0.039471436300000003 
		endloop
	endfacet
	facet normal -0.56708840809517558 -0.65146219470282352 -0.50399181171628205 
		outer loop
			vertex -0.045896951499999998 -0.0298561954 -0.70471119299999996 
			vertex 0.72111144599999999 -0.67054471760000001 -0.73958719679999996 
			vertex 0.077642554200000005 -0.7021044488 0.025234199700000001 
		endloop
	endfacet
	facet normal -0.16435280821591033 0.60330286366174357 -0.78039336819906657 
		outer loop
			vertex 0.72111144599999999 -0.67054471760000001 -0.73958719679999996 
			vertex -0.16962588440000001 -0.42143451269999999 -0.35941471749999998 
			vertex 0.6427323882 0.1101180897 -0.1195692095 
		endloop
	endfacet
	facet normal 0.9919508387534095 0.10424695624140316 -0.071875625985521108 
		outer loop
			vertex -0.1319111315 -0.12280581860000001 0.59420916040000005 
			vertex -0.16962588440000001 -0.42143451269999999 -0.35941471749999998 
			vertex -0.2554506372 0.54944243479999999 -0.13573623239999999 
		endloop
	endfacet
	facet normal 0.63669122649826215 -0.50137685693876766 0.58587159807106304 
		outer loop
			vertex -0.070989730400000006 0.67919421670000002 0. 
			vertex -0.76322168670000001 0.64233382260000005 0.7207331199 
			vertex -0.71134948610000004 -0.087866008499999995 0.039471436300000003 
		endloop
	endfacet
	facet normal 0.5287737229670042 0.66704736758084027 0.52482964788880326 
		outer loop
			vertex -0.045896951499999998 -0.0298561954 -0.70471119299999996 
			vertex -0.71134948610000004 -0.087866008499999995 0.039471436300000003 
			vertex 0.077642554200000005 -0.7021044488 0.025234199700000001 
		endloop
	endfacet
	facet normal -0.71202901999783119 0.39146231194923475 -0.58289959084244336 
		outer loop
			vertex 0.72111144599999999 -0.67054471760000001 -0.73958719679999996 
			vertex 0.077642554200000005 -0.7021044488 0.025234199700000001 
			vertex 0.6427323882 0.1101180897 -0.1195692095 
		endloop
	endfacet
	facet normal -0.13159382314689128 -0.23358639172721379 0.96339008885780275 
		outer loop
			vertex -0.16962588440000001 -0.42143451269999999 -0.35941471749999998 
			vertex 0.6427323882 0.1101180897 -0.1195692095 
			vertex -0.2554506372 0.54944243479999999 -0.13573623239999999 
		endloop
	endfacet
	facet normal -0.74312562181185815 -0.55016046469335567 -0.38090388983985196 
		outer loop
			vertex -0.1319111315 -0.12280581860000001 0.59420916040000005 
			vertex -0.76322168670000001 0.64233382260000005 0.7207331199 
			vertex -0.2554506372 0.54944243479999999 -0.13573623239999999 
		endloop
	endfacet
	facet normal -0.42831454574699496 -0.63251840208203625 0.64534263839384798 
		outer loop
			vertex -0.76322168670000001 0.64233382260000005 0.7207331199 
			vertex -0.71134948610000004 -0.087866008499999995 0.039471436300000003 
			vertex 0.043990256999999998 0.053523137800000002 0.67937063289999999 
		endloop
	endfacet
	facet normal -0.4515314354749943 -0.59539745725591742 0.66454588304426288 
		outer loop
			vertex -0.71134948610000004 -0.087866008499999995 0.039471436300000003 
			vertex 0.077642554200000005 -0.7021044488 0.025234199700000001 
			vertex 0.043990256999999998 0.053523137800000002 0.67937063289999999 
		endloop
	endfacet
	facet normal 0.73984181313205333 -0.42120344219861783 0.52461581354502806 
		outer loop
			vertex 0.077642554200000005 -0.7021044488 0.025234199700000001 
			vertex 0.6427323882 0.1101180897 -0.1195692095 
			vertex 0.043990256999999998 0.053523137800000002 0.67937063289999999 
		endloop
	endfacet
	facet normal 0.40423612242000806 0.83978377459408049 0.36243119244810384 
		outer loop
			vertex 0.6427323882 0.1101180897 -0.1195692095 
			vertex -0.2554506372 0.54944243479999999 -0.13573623239999999 
			vertex 0.043990256999999998 0.053523137800000002 0.67937063289999999 
		endloop
	endfacet
	facet normal -0.57787691309527411 -0.7740530638061992 -0.25865059003163565 
		outer loop
			vertex -0.76322168670000001 0.64233382260000005 0.7207331199 
			vertex -0.2554506372 0.54944243479999999 -0.13573623239999999 
			vertex 0.043990256999999998 0.053523137800000002 0.67937063289999999 
		endloop
	endfacet
endsolid base_models/icosahedron_13_5_unchanged