solid base_models/icosahedron_11_2_unchanged
	facet normal 0.47129001001932819 0.3422517698745054 0.81286496570694322 
		outer loop
			vertex 0.1032246922 0. 0. 
			vertex -0.48438022850000001 0.80914798210000005 0. 
			vertex -0.76018696559999999 -0.0090773737000000004 0.50441838849999998 
		endloop
	endfacet
	facet normal -0.78976419770284378 -0.57352837679761492 -0.21757231679300709 
		outer loop
			vertex 0.1032246922 0. 0. 
			vertex -0.48438022850000001 0.80914798210000005 0. 
			vertex -0.038115553599999998 0.51529236320000005 -0.84527907560000004 
		endloop
	endfacet
	facet normal -0.98659207032710405 -0.0029365283778992608 0.16317923755418248 
		outer loop
			vertex 0.1032246922 0. 0. 
			vertex -0.038115553599999998 0.51529236320000005 -0.84527907560000004 
			vertex -0.038115553599999998 -0.48454575280000001 -0.8632718855 
		endloop
	endfacet
	facet normal -0.78976419771178319 0.58098523452754613 -0.19679600929296234 
		outer loop
			vertex 0.1032246922 0. 0. 
			vertex -0.038115553599999998 -0.48454575280000001 -0.8632718855 
			vertex -0.48438022850000001 -0.80862407300000005 -0.0291129782 
		endloop
	endfacet
	facet normal 0.47129001000500648 -0.37127688236530121 0.80002450155641069 
		outer loop
			vertex 0.1032246922 0. 0. 
			vertex -0.76018696559999999 -0.0090773737000000004 0.50441838849999998 
			vertex -0.48438022850000001 -0.80862407300000005 -0.0291129782 
		endloop
	endfacet
	facet normal -0.53853443912977461 0.56621433036164126 0.62400479963242061 
		outer loop
			vertex -0.48438022850000001 0.80914798210000005 0. 
			vertex -0.76018696559999999 -0.0090773737000000004 0.50441838849999998 
			vertex 0.067233245600000005 0.48624115829999998 0.76906030879999998 
		endloop
	endfacet
	facet normal -0.85700862690710655 -0.41227918217965531 -0.3091311846903676 
		outer loop
			vertex -0.48438022850000001 0.80914798210000005 0. 
			vertex -0.038115553599999998 0.51529236320000005 -0.84527907560000004 
			vertex -0.038115553599999998 -0.084610506399999993 -0.045206236900000002 
		endloop
	endfacet
	facet normal -0.29524180892528729 -0.017190736558774646 0.95526789584864147 
		outer loop
			vertex -0.038115553599999998 0.51529236320000005 -0.84527907560000004 
			vertex -0.038115553599999998 -0.48454575280000001 -0.8632718855 
			vertex 0.78930465750000001 0.010772779200000001 -0.59862996530000001 
		endloop
	endfacet
	facet normal -0.85700862690013702 0.42313471522138368 -0.29409730735465783 
		outer loop
			vertex -0.038115553599999998 -0.48454575280000001 -0.8632718855 
			vertex -0.48438022850000001 -0.80862407300000005 -0.0291129782 
			vertex -0.038115553599999998 0.086182233699999999 -0.042132697900000002 
		endloop
	endfacet
	facet normal -0.53853443909322096 -0.58829928103860973 0.6032284922315958 
		outer loop
			vertex -0.76018696559999999 -0.0090773737000000004 0.50441838849999998 
			vertex -0.48438022850000001 -0.80862407300000005 -0.0291129782 
			vertex 0.067233245600000005 -0.51359695770000002 0.75106749859999999 
		endloop
	endfacet
	facet normal 0.8105438691241984 0.42509240083469862 -0.40288346575376649 
		outer loop
			vertex -0.48438022850000001 0.80914798210000005 0. 
			vertex 0.067233245600000005 0.48624115829999998 0.76906030879999998 
			vertex -0.038115553599999998 -0.084610506399999993 -0.045206236900000002 
		endloop
	endfacet
	facet normal 0.29524180879707812 0.76440764225661095 0.57316073731364281 
		outer loop
			vertex -0.038115553599999998 0.51529236320000005 -0.84527907560000004 
			vertex -0.038115553599999998 -0.084610506399999993 -0.045206236900000002 
			vertex 0.78930465750000001 0.010772779200000001 -0.59862996530000001 
		endloop
	endfacet
	facet normal 0.29524180883690015 -0.78453490738446519 0.54528639576828275 
		outer loop
			vertex -0.038115553599999998 -0.48454575280000001 -0.8632718855 
			vertex 0.78930465750000001 0.010772779200000001 -0.59862996530000001 
			vertex -0.038115553599999998 0.086182233699999999 -0.042132697900000002 
		endloop
	endfacet
	facet normal 0.8105438690948169 -0.41032149656367378 -0.41791734317990581 
		outer loop
			vertex -0.48438022850000001 -0.80862407300000005 -0.0291129782 
			vertex -0.038115553599999998 0.086182233699999999 -0.042132697900000002 
			vertex 0.067233245600000005 -0.51359695770000002 0.75106749859999999 
		endloop
	endfacet
	facet normal 0.2952418088400216 0.017190736845782702 -0.9552678958698293 
		outer loop
			vertex -0.76018696559999999 -0.0090773737000000004 0.50441838849999998 
			vertex 0.067233245600000005 0.48624115829999998 0.76906030879999998 
			vertex 0.067233245600000005 -0.51359695770000002 0.75106749859999999 
		endloop
	endfacet
	facet normal -0.22006025144720825 -0.78513986550372594 0.57890316748985093 
		outer loop
			vertex 0.067233245600000005 0.48624115829999998 0.76906030879999998 
			vertex -0.038115553599999998 -0.084610506399999993 -0.045206236900000002 
			vertex 0.85441379620000002 -0.0071818528000000001 0.39908664360000001 
		endloop
	endfacet
	facet normal 0.098413936214443928 -0.99484821744179408 -0.024325324492473304 
		outer loop
			vertex -0.038115553599999998 -0.084610506399999993 -0.045206236900000002 
			vertex 0.78930465750000001 0.010772779200000001 -0.59862996530000001 
			vertex 0.85441379620000002 -0.0071818528000000001 0.39908664360000001 
		endloop
	endfacet
	facet normal 0.098413936209994529 0.99507929088285207 0.011484860283669553 
		outer loop
			vertex 0.78930465750000001 0.010772779200000001 -0.59862996530000001 
			vertex -0.038115553599999998 0.086182233699999999 -0.042132697900000002 
			vertex 0.85441379620000002 -0.0071818528000000001 0.39908664360000001 
		endloop
	endfacet
	facet normal -0.22006025145718269 0.76380268404355545 0.60677750912213457 
		outer loop
			vertex -0.038115553599999998 0.086182233699999999 -0.042132697900000002 
			vertex 0.067233245600000005 -0.51359695770000002 0.75106749859999999 
			vertex 0.85441379620000002 -0.0071818528000000001 0.39908664360000001 
		endloop
	endfacet
	facet normal 0.41688812392738772 -0.01635470527836385 0.9088106600076612 
		outer loop
			vertex 0.067233245600000005 0.48624115829999998 0.76906030879999998 
			vertex 0.067233245600000005 -0.51359695770000002 0.75106749859999999 
			vertex 0.85441379620000002 -0.0071818528000000001 0.39908664360000001 
		endloop
	endfacet
endsolid base_models/icosahedron_11_2_unchanged